\contentsline {table}{\numberline {3.1}{\ignorespaces 4 fractions for evaluating boolean decision problems. Events are truly collumn and classified as row\relax }}{11}{table.caption.5}%
\contentsline {table}{\numberline {8.1}{\ignorespaces Cross invertibility auc scores trained on row to be compared to collumn\relax }}{67}{table.caption.71}%
\contentsline {table}{\numberline {C.1}{\ignorespaces Quality differences for different encoder with a learnable handling of the feature vectors\relax }}{96}{table.caption.98}%
\contentsline {table}{\numberline {C.2}{\ignorespaces Quality differences for different encoder with a fixed function\relax }}{97}{table.caption.99}%
\contentsline {table}{\numberline {C.3}{\ignorespaces Quality differences for different graph like decoder\relax }}{97}{table.caption.100}%
\contentsline {table}{\numberline {C.4}{\ignorespaces Quality differences for different param like decoder\relax }}{98}{table.caption.101}%
\contentsline {table}{\numberline {C.5}{\ignorespaces Quality difference for either running learnable sub graph updates or not\relax }}{98}{table.caption.102}%
\contentsline {table}{\numberline {E.1}{\ignorespaces Distribution of types of loss vs AUC plots for random gaussian double peaks\relax }}{116}{table.caption.114}%
\contentsline {table}{\numberline {E.2}{\ignorespaces Learned metrik values of oneoff networks trained on muon events\relax }}{119}{table.caption.117}%
\contentsline {table}{\numberline {E.3}{\ignorespaces Learned metrik values for a diagonal metrik oneoff networks trained on muon events\relax }}{119}{table.caption.118}%
