\relax 
\providecommand\hyper@newdestlabel[2]{}
\providecommand\HyperFirstAtBeginDocument{\AtBeginDocument}
\HyperFirstAtBeginDocument{\ifx\hyper@anchor\@undefined
\global\let\oldcontentsline\contentsline
\gdef\contentsline#1#2#3#4{\oldcontentsline{#1}{#2}{#3}}
\global\let\oldnewlabel\newlabel
\gdef\newlabel#1#2{\newlabelxx{#1}#2}
\gdef\newlabelxx#1#2#3#4#5#6{\oldnewlabel{#1}{{#2}{#3}}}
\AtEndDocument{\ifx\hyper@anchor\@undefined
\let\contentsline\oldcontentsline
\let\newlabel\oldnewlabel
\fi}
\fi}
\global\let\hyper@last\relax 
\gdef\HyperFirstAtBeginDocument#1{#1}
\providecommand\HyField@AuxAddToFields[1]{}
\providecommand\HyField@AuxAddToCoFields[2]{}
\@writefile{toc}{\contentsline {section}{Table of content}{1}{section*.1}\protected@file@percent }
\citation{high1}
\citation{measurehiggs}
\citation{dlatlhc}
\citation{jetdm}
\citation{gnnoverview}
\citation{QCDorWhat}
\@writefile{toc}{\contentsline {section}{\numberline {1}Motivation}{3}{section.1}\protected@file@percent }
\newlabel{sec:intro}{{1}{3}{Motivation}{section.1}{}}
\citation{QCDorWhat}
\citation{topquark}
\citation{aebasic}
\@writefile{toc}{\contentsline {section}{\numberline {2}Introduction and literature}{5}{section.2}\protected@file@percent }
\newlabel{sec:secintro}{{2}{5}{Introduction and literature}{section.2}{}}
\@writefile{toc}{\contentsline {subsection}{\numberline {2.1}New physics }{5}{subsection.2.1}\protected@file@percent }
\newlabel{sec:physics}{{2.1}{5}{New physics}{subsection.2.1}{}}
\@writefile{toc}{\contentsline {subsection}{\numberline {2.2}Neuronal networks and autoencoder }{5}{subsection.2.2}\protected@file@percent }
\newlabel{sec:ae}{{2.2}{5}{Neuronal networks and autoencoder}{subsection.2.2}{}}
\citation{aeforcompress}
\citation{aeforgen}
\citation{aeforgen}
\citation{variationalae}
\citation{aecombine}
\citation{ostagram}
\citation{ostagram}
\@writefile{lof}{\contentsline {figure}{\numberline {2.1}{\ignorespaces A simple example on how an autoencoder can reduce the number of parameters that is needed to approximately encode an event. Instead of using two variables x and y to define each of the points, you can use only the x value as latent space and an approximation of the y value as a function of this latent space x value\relax }}{6}{figure.caption.2}\protected@file@percent }
\providecommand*\caption@xref[2]{\@setref\relax\@undefined{#1}}
\newlabel{fig:aeexamp}{{2.1}{6}{A simple example on how an autoencoder can reduce the number of parameters that is needed to approximately encode an event. Instead of using two variables x and y to define each of the points, you can use only the x value as latent space and an approximation of the y value as a function of this latent space x value\relax }{figure.caption.2}{}}
\citation{aeforanomaly}
\citation{aeforanomalyphys}
\citation{QCDorWhat}
\citation{aeforpurity}
\citation{aeforfault}
\citation{aeforfraud}
\citation{aeformotors}
\citation{aefornuclear}
\citation{graphbasic}
\newlabel{fig:aemerge_1}{{\caption@xref {fig:aemerge_1}{ on input line 222}}{7}{Neuronal networks and autoencoder}{figure.caption.3}{}}
\newlabel{sub@fig:aemerge_1}{{}{7}{Neuronal networks and autoencoder}{figure.caption.3}{}}
\newlabel{fig:aemerge_2}{{\caption@xref {fig:aemerge_2}{ on input line 227}}{7}{Neuronal networks and autoencoder}{figure.caption.3}{}}
\newlabel{sub@fig:aemerge_2}{{}{7}{Neuronal networks and autoencoder}{figure.caption.3}{}}
\newlabel{fig:aemerge_3}{{\caption@xref {fig:aemerge_3}{ on input line 232}}{7}{Neuronal networks and autoencoder}{figure.caption.3}{}}
\newlabel{sub@fig:aemerge_3}{{}{7}{Neuronal networks and autoencoder}{figure.caption.3}{}}
\@writefile{lof}{\contentsline {figure}{\numberline {2.2}{\ignorespaces Example images showing how an autoencoder can combine two images into one. Taken from \cite  {ostagram}, generated by Ember, Bruno and ArgonOl\relax }}{7}{figure.caption.3}\protected@file@percent }
\newlabel{fig:aemerge}{{2.2}{7}{Example images showing how an autoencoder can combine two images into one. Taken from \cite {ostagram}, generated by Ember, Bruno and ArgonOl\relax }{figure.caption.3}{}}
\@writefile{toc}{\contentsline {subsection}{\numberline {2.3}Graphs }{7}{subsection.2.3}\protected@file@percent }
\newlabel{sec:graphs}{{2.3}{7}{Graphs}{subsection.2.3}{}}
\citation{kaliningradmaps}
\citation{kaliningradmaps}
\citation{graphsoc}
\citation{pairpot}
\citation{gnnforchemistry}
\citation{gnnformedicine}
\citation{ParticleNet}
\citation{toptagref}
\@writefile{lof}{\contentsline {figure}{\numberline {2.3}{\ignorespaces A representation of the city regions as a graph: You can understand a map as a graph, where each region becomes a node and bridges between them represent edges. Here using a map from \cite  {kaliningradmaps}\relax }}{8}{figure.caption.4}\protected@file@percent }
\newlabel{fig:kaliningrad}{{2.3}{8}{A representation of the city regions as a graph: You can understand a map as a graph, where each region becomes a node and bridges between them represent edges. Here using a map from \cite {kaliningradmaps}\relax }{figure.caption.4}{}}
\citation{globalavpool}
\citation{nopool}
\citation{kipfetal}
\citation{diffpool}
\citation{mincutpool}
\citation{graphunets}
\@writefile{toc}{\contentsline {subsection}{\numberline {2.4}Graph autoencoder }{9}{subsection.2.4}\protected@file@percent }
\newlabel{sec:gae}{{2.4}{9}{Graph autoencoder}{subsection.2.4}{}}
\citation{binclass}
\@writefile{toc}{\contentsline {section}{\numberline {3}Basics}{11}{section.3}\protected@file@percent }
\newlabel{sec:secdef}{{3}{11}{Basics}{section.3}{}}
\@writefile{toc}{\contentsline {subsection}{\numberline {3.1}Binary classification }{11}{subsection.3.1}\protected@file@percent }
\newlabel{sec:binclass}{{3.1}{11}{Binary classification}{subsection.3.1}{}}
\@writefile{lot}{\contentsline {table}{\numberline {3.1}{\ignorespaces 4 fractions for evaluating boolean decision problems. Events are truly collumn and classified as row\relax }}{11}{table.caption.5}\protected@file@percent }
\newlabel{table:fractions}{{3.1}{11}{4 fractions for evaluating boolean decision problems. Events are truly collumn and classified as row\relax }{table.caption.5}{}}
\@writefile{toc}{\contentsline {subsubsection}{\numberline {3.1.1}ROC curve}{11}{subsubsection.3.1.1}\protected@file@percent }
\newlabel{sec:classroc}{{3.1.1}{11}{ROC curve}{subsubsection.3.1.1}{}}
\@writefile{lof}{\contentsline {figure}{\numberline {3.1}{\ignorespaces A sample loss distribution, to explain how to calculate a ROC curve. To get your ROC curve, you have to choose every possible position of the parameter. Given one parameter value, everything with a loss higher than the parameter is classified as signal, and everything with lower loss as background. Your ROC curve is now the collection of all true and false positive rates for each possible parameter value\relax }}{11}{figure.caption.6}\protected@file@percent }
\newlabel{fig:exampleloss}{{3.1}{11}{A sample loss distribution, to explain how to calculate a ROC curve. To get your ROC curve, you have to choose every possible position of the parameter. Given one parameter value, everything with a loss higher than the parameter is classified as signal, and everything with lower loss as background. Your ROC curve is now the collection of all true and false positive rates for each possible parameter value\relax }{figure.caption.6}{}}
\@writefile{lof}{\contentsline {figure}{\numberline {3.2}{\ignorespaces A sample ROC curve plotted in way showing its AUC score\relax }}{12}{figure.caption.7}\protected@file@percent }
\newlabel{fig:roca}{{3.2}{12}{A sample ROC curve plotted in way showing its AUC score\relax }{figure.caption.7}{}}
\@writefile{lof}{\contentsline {figure}{\numberline {3.3}{\ignorespaces A sample ROC curve showing the background rejection rate\relax }}{12}{figure.caption.8}\protected@file@percent }
\newlabel{fig:rocb}{{3.3}{12}{A sample ROC curve showing the background rejection rate\relax }{figure.caption.8}{}}
\citation{data}
\@writefile{toc}{\contentsline {subsubsection}{\numberline {3.1.2}Area under the curve}{13}{subsubsection.3.1.2}\protected@file@percent }
\newlabel{sec:classauc}{{3.1.2}{13}{Area under the curve}{subsubsection.3.1.2}{}}
\@writefile{toc}{\contentsline {subsection}{\numberline {3.2}Datapreperation }{13}{subsection.3.2}\protected@file@percent }
\newlabel{sec:data}{{3.2}{13}{Datapreperation}{subsection.3.2}{}}
\@writefile{toc}{\contentsline {subsection}{\numberline {3.3}Explaining figures used in this thesis }{14}{subsection.3.3}\protected@file@percent }
\newlabel{sec:graphics}{{3.3}{14}{Explaining figures used in this thesis}{subsection.3.3}{}}
\@writefile{toc}{\contentsline {subsubsection}{\numberline {3.3.1}Output images}{14}{subsubsection.3.3.1}\protected@file@percent }
\newlabel{sec:imgout}{{3.3.1}{14}{Output images}{subsubsection.3.3.1}{}}
\@writefile{lof}{\contentsline {figure}{\numberline {3.4}{\ignorespaces A sample reconstuction image\relax }}{14}{figure.caption.9}\protected@file@percent }
\newlabel{fig:explsimpledraw}{{3.4}{14}{A sample reconstuction image\relax }{figure.caption.9}{}}
\@writefile{lof}{\contentsline {figure}{\numberline {3.5}{\ignorespaces A sample momentum reconstruction image\relax }}{15}{figure.caption.10}\protected@file@percent }
\newlabel{fig:explptdraw}{{3.5}{15}{A sample momentum reconstruction image\relax }{figure.caption.10}{}}
\@writefile{toc}{\contentsline {subsubsection}{\numberline {3.3.2}AUC Feature maps}{15}{subsubsection.3.3.2}\protected@file@percent }
\newlabel{sec:imgmaps}{{3.3.2}{15}{AUC Feature maps}{subsubsection.3.3.2}{}}
\@writefile{lof}{\contentsline {figure}{\numberline {3.6}{\ignorespaces A sample AUC Featuremap\relax }}{15}{figure.caption.11}\protected@file@percent }
\newlabel{fig:explaucmap}{{3.6}{15}{A sample AUC Featuremap\relax }{figure.caption.11}{}}
\@writefile{toc}{\contentsline {section}{\numberline {4}A working graph autoencoder}{17}{section.4}\protected@file@percent }
\newlabel{sec:secgae}{{4}{17}{A working graph autoencoder}{section.4}{}}
\@writefile{toc}{\contentsline {subsection}{\numberline {4.1}Graph neural networks }{17}{subsection.4.1}\protected@file@percent }
\newlabel{sec:gnn}{{4.1}{17}{Graph neural networks}{subsection.4.1}{}}
\@writefile{toc}{\contentsline {subsubsection}{\numberline {4.1.1}Tensorproducts}{17}{subsubsection.4.1.1}\protected@file@percent }
\newlabel{sec:tensorproduct}{{4.1.1}{17}{Tensorproducts}{subsubsection.4.1.1}{}}
\citation{diffpool}
\@writefile{toc}{\contentsline {subsection}{\numberline {4.2}The compression algorithm }{18}{subsection.4.2}\protected@file@percent }
\newlabel{sec:encode0}{{4.2}{18}{The compression algorithm}{subsection.4.2}{}}
\@writefile{toc}{\contentsline {subsection}{\numberline {4.3}the decompression algorithm }{18}{subsection.4.3}\protected@file@percent }
\newlabel{sec:decode0}{{4.3}{18}{the decompression algorithm}{subsection.4.3}{}}
\citation{batchnorm}
\citation{tf}
\citation{keras}
\@writefile{toc}{\contentsline {subsection}{\numberline {4.4}Our model setup }{19}{subsection.4.4}\protected@file@percent }
\newlabel{sec:setup}{{4.4}{19}{Our model setup}{subsection.4.4}{}}
\@writefile{toc}{\contentsline {subsubsection}{\numberline {4.4.1}Our choice to not use biases}{19}{subsubsection.4.4.1}\protected@file@percent }
\newlabel{sec:nobias}{{4.4.1}{19}{Our choice to not use biases}{subsubsection.4.4.1}{}}
\@writefile{toc}{\contentsline {subsection}{\numberline {4.5}Choosing the rigth loss }{20}{subsection.4.5}\protected@file@percent }
\newlabel{sec:losses}{{4.5}{20}{Choosing the rigth loss}{subsection.4.5}{}}
\@writefile{toc}{\contentsline {subsubsection}{\numberline {4.5.1}$L_{2}$ loss}{20}{subsubsection.4.5.1}\protected@file@percent }
\newlabel{sec:l2}{{4.5.1}{20}{$L_{2}$ loss}{subsubsection.4.5.1}{}}
\@writefile{lof}{\contentsline {figure}{\numberline {4.1}{\ignorespaces A $L_{2}$ reconstruction image, the reconstructed width is often lower than the input width. Here you see this best in $\phi $\relax }}{20}{figure.caption.12}\protected@file@percent }
\newlabel{fig:sd979}{{4.1}{20}{A $L_{2}$ reconstruction image, the reconstructed width is often lower than the input width. Here you see this best in $\phi $\relax }{figure.caption.12}{}}
\@writefile{toc}{\contentsline {subsubsection}{\numberline {4.5.2}$L_{n}$ loss}{20}{subsubsection.4.5.2}\protected@file@percent }
\newlabel{sec:ln}{{4.5.2}{20}{$L_{n}$ loss}{subsubsection.4.5.2}{}}
\@writefile{lof}{\contentsline {figure}{\numberline {4.2}{\ignorespaces Reconstruction image for a model that only remembers 3 nodes perfectly trained with an $L_{1}$ loss\relax }}{21}{figure.caption.13}\protected@file@percent }
\newlabel{fig:sd1093}{{4.2}{21}{Reconstruction image for a model that only remembers 3 nodes perfectly trained with an $L_{1}$ loss\relax }{figure.caption.13}{}}
\@writefile{lof}{\contentsline {figure}{\numberline {4.3}{\ignorespaces A $L_{1}$ reconstruction image, not working trivially, but also not working perfectly\relax }}{22}{figure.caption.14}\protected@file@percent }
\newlabel{fig:sd899}{{4.3}{22}{A $L_{1}$ reconstruction image, not working trivially, but also not working perfectly\relax }{figure.caption.14}{}}
\@writefile{toc}{\contentsline {subsubsection}{\numberline {4.5.3}Image like losses}{22}{subsubsection.4.5.3}\protected@file@percent }
\newlabel{sec:imageloss}{{4.5.3}{22}{Image like losses}{subsubsection.4.5.3}{}}
\@writefile{lof}{\contentsline {figure}{\numberline {4.4}{\ignorespaces Reconstruction image of an image like loss working well\relax }}{23}{figure.caption.15}\protected@file@percent }
\newlabel{fig:sd677}{{4.4}{23}{Reconstruction image of an image like loss working well\relax }{figure.caption.15}{}}
\@writefile{toc}{\contentsline {subsection}{\numberline {4.6}Difficulties when evaluating a model }{23}{subsection.4.6}\protected@file@percent }
\newlabel{sec:evalprob}{{4.6}{23}{Difficulties when evaluating a model}{subsection.4.6}{}}
\@writefile{toc}{\contentsline {subsubsection}{\numberline {4.6.1}AUC scores}{23}{subsubsection.4.6.1}\protected@file@percent }
\newlabel{sec:evalauc}{{4.6.1}{23}{AUC scores}{subsubsection.4.6.1}{}}
\@writefile{toc}{\contentsline {subsubsection}{\numberline {4.6.2}Losses}{24}{subsubsection.4.6.2}\protected@file@percent }
\newlabel{sec:evalloss}{{4.6.2}{24}{Losses}{subsubsection.4.6.2}{}}
\@writefile{toc}{\contentsline {subsubsection}{\numberline {4.6.3}Images}{24}{subsubsection.4.6.3}\protected@file@percent }
\newlabel{sec:evalimg}{{4.6.3}{24}{Images}{subsubsection.4.6.3}{}}
\@writefile{toc}{\contentsline {subsubsection}{\numberline {4.6.4}oneoff width}{24}{subsubsection.4.6.4}\protected@file@percent }
\newlabel{sec:evaloow}{{4.6.4}{24}{oneoff width}{subsubsection.4.6.4}{}}
\@writefile{toc}{\contentsline {subsection}{\numberline {4.7}Evaluating the autoencoder }{24}{subsection.4.7}\protected@file@percent }
\newlabel{sec:evalae}{{4.7}{24}{Evaluating the autoencoder}{subsection.4.7}{}}
\@writefile{toc}{\contentsline {subsubsection}{\numberline {4.7.1}4 nodes}{25}{subsubsection.4.7.1}\protected@file@percent }
\newlabel{sec:ae4}{{4.7.1}{25}{4 nodes}{subsubsection.4.7.1}{}}
\@writefile{lof}{\contentsline {figure}{\numberline {4.5}{\ignorespaces Training history for a 4 node network\relax }}{25}{figure.caption.16}\protected@file@percent }
\newlabel{fig:h979}{{4.5}{25}{Training history for a 4 node network\relax }{figure.caption.16}{}}
\@writefile{lof}{\contentsline {figure}{\numberline {4.6}{\ignorespaces Angular reconstruction images for a 4 node image.\relax }}{25}{figure.caption.17}\protected@file@percent }
\newlabel{fig:sd979}{{4.6}{25}{Angular reconstruction images for a 4 node image.\relax }{figure.caption.17}{}}
\@writefile{lof}{\contentsline {figure}{\numberline {4.7}{\ignorespaces Momentum reconstruction images for a 4 node image.\relax }}{26}{figure.caption.18}\protected@file@percent }
\newlabel{fig:pt979}{{4.7}{26}{Momentum reconstruction images for a 4 node image.\relax }{figure.caption.18}{}}
\@writefile{toc}{\contentsline {subsubsection}{\numberline {4.7.2}9 nodes}{26}{subsubsection.4.7.2}\protected@file@percent }
\newlabel{sec:ae9}{{4.7.2}{26}{9 nodes}{subsubsection.4.7.2}{}}
\@writefile{lof}{\contentsline {figure}{\numberline {4.8}{\ignorespaces Example training history for a 9 node network showing how NAN losses hurt the training procedure\relax }}{26}{figure.caption.19}\protected@file@percent }
\newlabel{fig:hist1416}{{4.8}{26}{Example training history for a 9 node network showing how NAN losses hurt the training procedure\relax }{figure.caption.19}{}}
\@writefile{lof}{\contentsline {figure}{\numberline {4.9}{\ignorespaces Angular reconstruction images for a 9 node image.\relax }}{27}{figure.caption.20}\protected@file@percent }
\newlabel{fig:sd1416}{{4.9}{27}{Angular reconstruction images for a 9 node image.\relax }{figure.caption.20}{}}
\@writefile{toc}{\contentsline {subsection}{\numberline {4.8}Evaluating the classifier }{27}{subsection.4.8}\protected@file@percent }
\newlabel{sec:evalclass}{{4.8}{27}{Evaluating the classifier}{subsection.4.8}{}}
\@writefile{toc}{\contentsline {subsubsection}{\numberline {4.8.1}4 nodes}{27}{subsubsection.4.8.1}\protected@file@percent }
\newlabel{sec:class4}{{4.8.1}{27}{4 nodes}{subsubsection.4.8.1}{}}
\@writefile{lof}{\contentsline {figure}{\numberline {4.10}{\ignorespaces Loss distribution of our 4 particle network\relax }}{27}{figure.caption.21}\protected@file@percent }
\newlabel{fig:rec4}{{4.10}{27}{Loss distribution of our 4 particle network\relax }{figure.caption.21}{}}
\@writefile{lof}{\contentsline {figure}{\numberline {4.11}{\ignorespaces Roc curve for our 4 particle network\relax }}{28}{figure.caption.22}\protected@file@percent }
\newlabel{fig:roc4}{{4.11}{28}{Roc curve for our 4 particle network\relax }{figure.caption.22}{}}
\@writefile{lof}{\contentsline {figure}{\numberline {4.12}{\ignorespaces AUC feature map for 4 nodes.\relax }}{28}{figure.caption.23}\protected@file@percent }
\newlabel{fig:map979}{{4.12}{28}{AUC feature map for 4 nodes.\relax }{figure.caption.23}{}}
\@writefile{toc}{\contentsline {subsubsection}{\numberline {4.8.2}9 nodes}{28}{subsubsection.4.8.2}\protected@file@percent }
\newlabel{sec:class9}{{4.8.2}{28}{9 nodes}{subsubsection.4.8.2}{}}
\@writefile{lof}{\contentsline {figure}{\numberline {4.13}{\ignorespaces Loss distribution for the 9 particle network\relax }}{29}{figure.caption.24}\protected@file@percent }
\newlabel{fig:rec1416}{{4.13}{29}{Loss distribution for the 9 particle network\relax }{figure.caption.24}{}}
\@writefile{lof}{\contentsline {figure}{\numberline {4.14}{\ignorespaces Roc curve for our 9 particle network\relax }}{29}{figure.caption.25}\protected@file@percent }
\newlabel{fig:roc1416}{{4.14}{29}{Roc curve for our 9 particle network\relax }{figure.caption.25}{}}
\@writefile{lof}{\contentsline {figure}{\numberline {4.15}{\ignorespaces Auc feature map for 9 nodes\relax }}{30}{figure.caption.26}\protected@file@percent }
\newlabel{fig:map1416}{{4.15}{30}{Auc feature map for 9 nodes\relax }{figure.caption.26}{}}
\@writefile{toc}{\contentsline {section}{\numberline {5}Apparent questions}{31}{section.5}\protected@file@percent }
\newlabel{sec:secinv}{{5}{31}{Apparent questions}{section.5}{}}
\@writefile{toc}{\contentsline {subsection}{\numberline {5.1}Scaling the network size }{31}{subsection.5.1}\protected@file@percent }
\newlabel{sec:probscale}{{5.1}{31}{Scaling the network size}{subsection.5.1}{}}
\@writefile{toc}{\contentsline {subsubsection}{\numberline {5.1.1}Problems in scaling}{31}{subsubsection.5.1.1}\protected@file@percent }
\newlabel{sec:scaleprob}{{5.1.1}{31}{Problems in scaling}{subsubsection.5.1.1}{}}
\@writefile{toc}{\contentsline {subsubsection}{\numberline {5.1.2}Scaling through batches}{31}{subsubsection.5.1.2}\protected@file@percent }
\newlabel{sec:scalebatch}{{5.1.2}{31}{Scaling through batches}{subsubsection.5.1.2}{}}
\@writefile{lof}{\contentsline {figure}{\numberline {5.1}{\ignorespaces AUC score scaling through multiple batches of 4 nodes each\relax }}{32}{figure.caption.27}\protected@file@percent }
\newlabel{fig:batchscale0}{{5.1}{32}{AUC score scaling through multiple batches of 4 nodes each\relax }{figure.caption.27}{}}
\@writefile{toc}{\contentsline {subsubsection}{\numberline {5.1.3}Scaling through dense networks}{32}{subsubsection.5.1.3}\protected@file@percent }
\newlabel{sec:scaledense}{{5.1.3}{32}{Scaling through dense networks}{subsubsection.5.1.3}{}}
\@writefile{lof}{\contentsline {figure}{\numberline {5.2}{\ignorespaces Scaling autoencoder, by using dense networks instead of of graph ones\relax }}{32}{figure.caption.28}\protected@file@percent }
\newlabel{fig:densescale}{{5.2}{32}{Scaling autoencoder, by using dense networks instead of of graph ones\relax }{figure.caption.28}{}}
\@writefile{toc}{\contentsline {subsubsection}{\numberline {5.1.4}C addition}{33}{subsubsection.5.1.4}\protected@file@percent }
\newlabel{sec:caddition}{{5.1.4}{33}{C addition}{subsubsection.5.1.4}{}}
\@writefile{lof}{\contentsline {figure}{\numberline {5.3}{\ignorespaces An example of how we model AUC as a function of the overlapp of two gaussian peaks\relax }}{33}{figure.caption.29}\protected@file@percent }
\newlabel{fig:gaussexamp}{{5.3}{33}{An example of how we model AUC as a function of the overlapp of two gaussian peaks\relax }{figure.caption.29}{}}
\@writefile{lof}{\contentsline {figure}{\numberline {5.4}{\ignorespaces AUC as function of $c$ for two random gaussian double peaks that alone would reach AUCs represented by the horizontal lines\relax }}{34}{figure.caption.30}\protected@file@percent }
\newlabel{fig:abc}{{5.4}{34}{AUC as function of $c$ for two random gaussian double peaks that alone would reach AUCs represented by the horizontal lines\relax }{figure.caption.30}{}}
\@writefile{lof}{\contentsline {figure}{\numberline {5.5}{\ignorespaces AUC score as a function of the loss power (-3) for parts of a QCD jet, using $5$ $4$ node networks combined in a way defined by the loss power\relax }}{35}{figure.caption.31}\protected@file@percent }
\newlabel{fig:firstcadd}{{5.5}{35}{AUC score as a function of the loss power (-3) for parts of a QCD jet, using $5$ $4$ node networks combined in a way defined by the loss power\relax }{figure.caption.31}{}}
\@writefile{toc}{\contentsline {subsubsection}{\numberline {5.1.5}Scaling through losses}{35}{subsubsection.5.1.5}\protected@file@percent }
\newlabel{sec:scaleloss}{{5.1.5}{35}{Scaling through losses}{subsubsection.5.1.5}{}}
\@writefile{toc}{\contentsline {subsection}{\numberline {5.2}Simplicity and invertibility }{36}{subsection.5.2}\protected@file@percent }
\newlabel{sec:probinv}{{5.2}{36}{Simplicity and invertibility}{subsection.5.2}{}}
\@writefile{toc}{\contentsline {subsubsection}{\numberline {5.2.1}Simplicity}{36}{subsubsection.5.2.1}\protected@file@percent }
\newlabel{sec:simplicity}{{5.2.1}{36}{Simplicity}{subsubsection.5.2.1}{}}
\@writefile{lof}{\contentsline {figure}{\numberline {5.6}{\ignorespaces AUC map for a simple network\relax }}{36}{figure.caption.32}\protected@file@percent }
\newlabel{fig:map979}{{5.6}{36}{AUC map for a simple network\relax }{figure.caption.32}{}}
\@writefile{lof}{\contentsline {figure}{\numberline {5.7}{\ignorespaces Average relative error by feature ($\frac  {\operatorname  {mean}{\left (\operatorname  {abs}{\left (x - f{\left (x \right )} \right )} \right )}}{\operatorname  {mean}{\left (\operatorname  {abs}{\left (x \right )} \right )}}$)\relax }}{37}{figure.caption.33}\protected@file@percent }
\newlabel{fig:losspos}{{5.7}{37}{Average relative error by feature ($\frac {\operatorname {mean}{\left (\operatorname {abs}{\left (x - f{\left (x \right )} \right )} \right )}}{\operatorname {mean}{\left (\operatorname {abs}{\left (x \right )} \right )}}$)\relax }{figure.caption.33}{}}
\@writefile{lof}{\contentsline {figure}{\numberline {5.8}{\ignorespaces 2d histogram of angles comparing QCD vs top, here for example for the particle with the fourth highest transverse momentum\relax }}{37}{figure.caption.34}\protected@file@percent }
\newlabel{fig:meaNANgle}{{5.8}{37}{2d histogram of angles comparing QCD vs top, here for example for the particle with the fourth highest transverse momentum\relax }{figure.caption.34}{}}
\citation{QCDorWhat}
\citation{thorb}
\@writefile{lof}{\contentsline {figure}{\numberline {5.9}{\ignorespaces Trivial width comparing angular scaling. Here we do not split each network in batches of 4 anymore, but simply calculate the AUC for each number of nodes up to $60$.\relax }}{38}{figure.caption.35}\protected@file@percent }
\newlabel{fig:tscaleno}{{5.9}{38}{Trivial width comparing angular scaling. Here we do not split each network in batches of 4 anymore, but simply calculate the AUC for each number of nodes up to $60$.\relax }{figure.caption.35}{}}
\@writefile{lof}{\contentsline {figure}{\numberline {5.10}{\ignorespaces Trivial width comparing angular scaling with c addition. The reason for the falloff at the end might be the different shape in later indices of missing particles or the assumptions tested in appendix \ref  {sec:impro}\relax }}{38}{figure.caption.36}\protected@file@percent }
\newlabel{fig:tscale}{{5.10}{38}{Trivial width comparing angular scaling with c addition. The reason for the falloff at the end might be the different shape in later indices of missing particles or the assumptions tested in appendix \ref {sec:impro}\relax }{figure.caption.36}{}}
\@writefile{toc}{\contentsline {subsubsection}{\numberline {5.2.2}Invertibility}{39}{subsubsection.5.2.2}\protected@file@percent }
\newlabel{sec:invertibility}{{5.2.2}{39}{Invertibility}{subsubsection.5.2.2}{}}
\@writefile{lof}{\contentsline {figure}{\numberline {5.11}{\ignorespaces Roc curves for the invertibility of a 4 node model\relax }}{40}{figure.caption.37}\protected@file@percent }
\newlabel{fig:recinv}{{5.11}{40}{Roc curves for the invertibility of a 4 node model\relax }{figure.caption.37}{}}
\@writefile{toc}{\contentsline {section}{\numberline {6}Normalization}{41}{section.6}\protected@file@percent }
\newlabel{sec:secnorm}{{6}{41}{Normalization}{section.6}{}}
\@writefile{toc}{\contentsline {subsection}{\numberline {6.1}Introudicing normalization for autoencoder }{41}{subsection.6.1}\protected@file@percent }
\newlabel{sec:normalization}{{6.1}{41}{Introudicing normalization for autoencoder}{subsection.6.1}{}}
\@writefile{toc}{\contentsline {subsubsection}{\numberline {6.1.1}The meaning of complexity}{41}{subsubsection.6.1.1}\protected@file@percent }
\newlabel{sec:complexity}{{6.1.1}{41}{The meaning of complexity}{subsubsection.6.1.1}{}}
\@writefile{toc}{\contentsline {subsubsection}{\numberline {6.1.2}How to normalise an autoencoder}{41}{subsubsection.6.1.2}\protected@file@percent }
\newlabel{sec:normprobs}{{6.1.2}{41}{How to normalise an autoencoder}{subsubsection.6.1.2}{}}
\@writefile{lof}{\contentsline {figure}{\numberline {6.1}{\ignorespaces Aucmap for normally normalized networks, showing not much useful being learned. We train here on top jets to test the invertibility\relax }}{42}{figure.caption.38}\protected@file@percent }
\newlabel{fig:map423}{{6.1}{42}{Aucmap for normally normalized networks, showing not much useful being learned. We train here on top jets to test the invertibility\relax }{figure.caption.38}{}}
\@writefile{toc}{\contentsline {subsection}{\numberline {6.2}Using this normalization }{43}{subsection.6.2}\protected@file@percent }
\newlabel{sec:usenorm}{{6.2}{43}{Using this normalization}{subsection.6.2}{}}
\@writefile{lof}{\contentsline {figure}{\numberline {6.2}{\ignorespaces Invertible 4node network auc maps achieved by a normalization. Here trained on top jets\relax }}{44}{figure.caption.39}\protected@file@percent }
\newlabel{fig:4nodeinv1}{{6.2}{44}{Invertible 4node network auc maps achieved by a normalization. Here trained on top jets\relax }{figure.caption.39}{}}
\@writefile{lof}{\contentsline {figure}{\numberline {6.3}{\ignorespaces Invertible 4node network auc maps achieved by a normalization. Here trained on qcd jets\relax }}{44}{figure.caption.40}\protected@file@percent }
\newlabel{fig:4nodeinv2}{{6.3}{44}{Invertible 4node network auc maps achieved by a normalization. Here trained on qcd jets\relax }{figure.caption.40}{}}
\@writefile{lof}{\contentsline {figure}{\numberline {6.4}{\ignorespaces Double roc curve for the invertibility of a normalized networks\relax }}{45}{figure.caption.41}\protected@file@percent }
\newlabel{fig:invtt}{{6.4}{45}{Double roc curve for the invertibility of a normalized networks\relax }{figure.caption.41}{}}
\@writefile{lof}{\contentsline {figure}{\numberline {6.5}{\ignorespaces More than 1500 Models, showing a clear relation between the network loss and the AUC score, each color represents sligthly different training setups. It would be linear if the x-axis would be linear\relax }}{45}{figure.caption.42}\protected@file@percent }
\newlabel{fig:relation1}{{6.5}{45}{More than 1500 Models, showing a clear relation between the network loss and the AUC score, each color represents sligthly different training setups. It would be linear if the x-axis would be linear\relax }{figure.caption.42}{}}
\@writefile{lof}{\contentsline {figure}{\numberline {6.6}{\ignorespaces Invertibility for compressing 4 node networks into a $9$ dimensional latent space. Notice the jump of the top AUC from above $0.5$ to below $0.5$ for lower losses. It means that when can use our loss to see if a trained network generates an invertible classifier. For compression sizes lower than $9$ this jump does not appear\relax }}{46}{figure.caption.43}\protected@file@percent }
\newlabel{fig:multiinv}{{6.6}{46}{Invertibility for compressing 4 node networks into a $9$ dimensional latent space. Notice the jump of the top AUC from above $0.5$ to below $0.5$ for lower losses. It means that when can use our loss to see if a trained network generates an invertible classifier. For compression sizes lower than $9$ this jump does not appear\relax }{figure.caption.43}{}}
\@writefile{lof}{\contentsline {figure}{\numberline {6.7}{\ignorespaces Reproducability comparison of for different training lengths\relax }}{46}{figure.caption.44}\protected@file@percent }
\newlabel{fig:trainsize}{{6.7}{46}{Reproducability comparison of for different training lengths\relax }{figure.caption.44}{}}
\@writefile{toc}{\contentsline {subsubsection}{\numberline {6.2.1}Improving the AUC scores for normalized networks}{47}{subsubsection.6.2.1}\protected@file@percent }
\newlabel{sec:normimpro}{{6.2.1}{47}{Improving the AUC scores for normalized networks}{subsubsection.6.2.1}{}}
\@writefile{toc}{\contentsline {subsubsection}{\numberline {6.2.2}Scaling in normalized networks}{47}{subsubsection.6.2.2}\protected@file@percent }
\newlabel{sec:scalenorm}{{6.2.2}{47}{Scaling in normalized networks}{subsubsection.6.2.2}{}}
\@writefile{lof}{\contentsline {figure}{\numberline {6.8}{\ignorespaces AUC values for higher normalized batches by their training data\relax }}{47}{figure.caption.45}\protected@file@percent }
\newlabel{fig:batchroc}{{6.8}{47}{AUC values for higher normalized batches by their training data\relax }{figure.caption.45}{}}
\@writefile{toc}{\contentsline {subsubsection}{\numberline {6.2.3}Improving the normalization even further}{47}{subsubsection.6.2.3}\protected@file@percent }
\newlabel{sec:normplus}{{6.2.3}{47}{Improving the normalization even further}{subsubsection.6.2.3}{}}
\@writefile{lof}{\contentsline {figure}{\numberline {6.9}{\ignorespaces AUC feature map for normalized top trained networks\relax }}{48}{figure.caption.46}\protected@file@percent }
\newlabel{fig:map928}{{6.9}{48}{AUC feature map for normalized top trained networks\relax }{figure.caption.46}{}}
\@writefile{lof}{\contentsline {figure}{\numberline {6.10}{\ignorespaces Distribution of the transverse momentum of the first particle\relax }}{48}{figure.caption.47}\protected@file@percent }
\newlabel{fig:pt0}{{6.10}{48}{Distribution of the transverse momentum of the first particle\relax }{figure.caption.47}{}}
\@writefile{lof}{\contentsline {figure}{\numberline {6.11}{\ignorespaces AUC feature map for a well normated network\relax }}{49}{figure.caption.48}\protected@file@percent }
\newlabel{fig:map534}{{6.11}{49}{AUC feature map for a well normated network\relax }{figure.caption.48}{}}
\@writefile{toc}{\contentsline {section}{\numberline {7}Mixed networks}{50}{section.7}\protected@file@percent }
\newlabel{sec:secmixed}{{7}{50}{Mixed networks}{section.7}{}}
\@writefile{toc}{\contentsline {subsection}{\numberline {7.1}Oneoff networks }{50}{subsection.7.1}\protected@file@percent }
\newlabel{sec:oneoff}{{7.1}{50}{Oneoff networks}{subsection.7.1}{}}
\@writefile{lof}{\contentsline {figure}{\numberline {7.1}{\ignorespaces AUC Feature map for an on top trained autoencoder, using a good normalization\relax }}{50}{figure.caption.49}\protected@file@percent }
\newlabel{fig:map534t2}{{7.1}{50}{AUC Feature map for an on top trained autoencoder, using a good normalization\relax }{figure.caption.49}{}}
\@writefile{toc}{\contentsline {subsubsection}{\numberline {7.1.1}Oneoff quality}{51}{subsubsection.7.1.1}\protected@file@percent }
\newlabel{sec:ooquality}{{7.1.1}{51}{Oneoff quality}{subsubsection.7.1.1}{}}
\citation{latentspace}
\@writefile{lof}{\contentsline {figure}{\numberline {7.2}{\ignorespaces AUC score as a function of the epoch, trained on QCD, here for a graph oneoff network. Graph oneoffs are not used anymore in the following, but since they show the same relation as a dense oneoff network much cleaner, we use this curve here. As you see, the relation shows a maximum before the training ends.\relax }}{52}{figure.caption.50}\protected@file@percent }
\newlabel{fig:mabe2}{{7.2}{52}{AUC score as a function of the epoch, trained on QCD, here for a graph oneoff network. Graph oneoffs are not used anymore in the following, but since they show the same relation as a dense oneoff network much cleaner, we use this curve here. As you see, the relation shows a maximum before the training ends.\relax }{figure.caption.50}{}}
\@writefile{toc}{\contentsline {subsection}{\numberline {7.2}Latent space oneoff learning }{52}{subsection.7.2}\protected@file@percent }
\newlabel{sec:mixedidea}{{7.2}{52}{Latent space oneoff learning}{subsection.7.2}{}}
\@writefile{toc}{\contentsline {subsection}{\numberline {7.3}A final classifier }{53}{subsection.7.3}\protected@file@percent }
\newlabel{sec:finalae}{{7.3}{53}{A final classifier}{subsection.7.3}{}}
\@writefile{toc}{\contentsline {subsubsection}{\numberline {7.3.1}Trained on QCD}{53}{subsubsection.7.3.1}\protected@file@percent }
\newlabel{sec:classQCD}{{7.3.1}{53}{Trained on QCD}{subsubsection.7.3.1}{}}
\@writefile{lof}{\contentsline {figure}{\numberline {7.3}{\ignorespaces Oneoff loss distribution for a network trained on qcd jets\relax }}{53}{figure.caption.51}\protected@file@percent }
\newlabel{fig:sephist928}{{7.3}{53}{Oneoff loss distribution for a network trained on qcd jets\relax }{figure.caption.51}{}}
\@writefile{lof}{\contentsline {figure}{\numberline {7.4}{\ignorespaces Oneoff Roc curve for a network trained on qcd jets\relax }}{53}{figure.caption.52}\protected@file@percent }
\newlabel{fig:seproc928}{{7.4}{53}{Oneoff Roc curve for a network trained on qcd jets\relax }{figure.caption.52}{}}
\@writefile{lof}{\contentsline {figure}{\numberline {7.5}{\ignorespaces Angular reconstruction images for a normalized network trained on QCD\relax }}{54}{figure.caption.53}\protected@file@percent }
\newlabel{fig:ang928}{{7.5}{54}{Angular reconstruction images for a normalized network trained on QCD\relax }{figure.caption.53}{}}
\@writefile{lof}{\contentsline {figure}{\numberline {7.6}{\ignorespaces Momentum reconstruction images for a normalized network trained on QCD\relax }}{54}{figure.caption.54}\protected@file@percent }
\newlabel{fig:pt928}{{7.6}{54}{Momentum reconstruction images for a normalized network trained on QCD\relax }{figure.caption.54}{}}
\@writefile{toc}{\contentsline {subsubsection}{\numberline {7.3.2}Trained on top}{54}{subsubsection.7.3.2}\protected@file@percent }
\newlabel{sec:classtop}{{7.3.2}{54}{Trained on top}{subsubsection.7.3.2}{}}
\@writefile{lof}{\contentsline {figure}{\numberline {7.7}{\ignorespaces Oneoff loss distribution for a network trained on top jets\relax }}{55}{figure.caption.55}\protected@file@percent }
\newlabel{fig:sephist1128}{{7.7}{55}{Oneoff loss distribution for a network trained on top jets\relax }{figure.caption.55}{}}
\@writefile{lof}{\contentsline {figure}{\numberline {7.8}{\ignorespaces ROC curve for a network trained on top jets\relax }}{55}{figure.caption.56}\protected@file@percent }
\newlabel{fig:seproc1128}{{7.8}{55}{ROC curve for a network trained on top jets\relax }{figure.caption.56}{}}
\@writefile{lof}{\contentsline {figure}{\numberline {7.9}{\ignorespaces Angular reconstruction images for a normalized network trained on top jets\relax }}{56}{figure.caption.57}\protected@file@percent }
\newlabel{fig:ang1128}{{7.9}{56}{Angular reconstruction images for a normalized network trained on top jets\relax }{figure.caption.57}{}}
\@writefile{lof}{\contentsline {figure}{\numberline {7.10}{\ignorespaces Momentum reconstruction images for a normalized network trained on top jets\relax }}{56}{figure.caption.58}\protected@file@percent }
\newlabel{fig:pt1128}{{7.10}{56}{Momentum reconstruction images for a normalized network trained on top jets\relax }{figure.caption.58}{}}
\@writefile{toc}{\contentsline {subsection}{\numberline {7.4}Scaling with oneoff networks }{56}{subsection.7.4}\protected@file@percent }
\newlabel{sec:scale3}{{7.4}{56}{Scaling with oneoff networks}{subsection.7.4}{}}
\@writefile{toc}{\contentsline {subsubsection}{\numberline {7.4.1}Scaling in batches}{56}{subsubsection.7.4.1}\protected@file@percent }
\newlabel{sec:ooscalebatch}{{7.4.1}{56}{Scaling in batches}{subsubsection.7.4.1}{}}
\@writefile{lof}{\contentsline {figure}{\numberline {7.11}{\ignorespaces Invertibility of batches in oneoff networks\relax }}{57}{figure.caption.59}\protected@file@percent }
\newlabel{fig:ooinv}{{7.11}{57}{Invertibility of batches in oneoff networks\relax }{figure.caption.59}{}}
\@writefile{toc}{\contentsline {subsubsection}{\numberline {7.4.2}Scaling without batches}{57}{subsubsection.7.4.2}\protected@file@percent }
\newlabel{sec:finalscale}{{7.4.2}{57}{Scaling without batches}{subsubsection.7.4.2}{}}
\@writefile{lof}{\contentsline {figure}{\numberline {7.12}{\ignorespaces Training history for a 16 node network trained on QCD\relax }}{58}{figure.caption.60}\protected@file@percent }
\newlabel{fig:hist1583}{{7.12}{58}{Training history for a 16 node network trained on QCD\relax }{figure.caption.60}{}}
\@writefile{lof}{\contentsline {figure}{\numberline {7.13}{\ignorespaces Angular reconstruction for a 16 node network trained on QCD\relax }}{58}{figure.caption.61}\protected@file@percent }
\newlabel{fig:sd1583}{{7.13}{58}{Angular reconstruction for a 16 node network trained on QCD\relax }{figure.caption.61}{}}
\@writefile{lof}{\contentsline {figure}{\numberline {7.14}{\ignorespaces Momentum reconstruction for a 16 node network trained on QCD\relax }}{59}{figure.caption.62}\protected@file@percent }
\newlabel{fig:pt1583}{{7.14}{59}{Momentum reconstruction for a 16 node network trained on QCD\relax }{figure.caption.62}{}}
\citation{leakage}
\citation{ldm}
\@writefile{toc}{\contentsline {section}{\numberline {8}Applying this model to other datasets}{60}{section.8}\protected@file@percent }
\newlabel{sec:secdata}{{8}{60}{Applying this model to other datasets}{section.8}{}}
\@writefile{toc}{\contentsline {subsection}{\numberline {8.1}Ligth dark matter }{60}{subsection.8.1}\protected@file@percent }
\newlabel{sec:ldm}{{8.1}{60}{Ligth dark matter}{subsection.8.1}{}}
\@writefile{lof}{\contentsline {figure}{\numberline {8.1}{\ignorespaces Angular distribution of ldm jets\relax }}{61}{figure.caption.63}\protected@file@percent }
\newlabel{fig:angldm}{{8.1}{61}{Angular distribution of ldm jets\relax }{figure.caption.63}{}}
\@writefile{lof}{\contentsline {figure}{\numberline {8.2}{\ignorespaces Momentum distribution of ldm vs lQCD jets\relax }}{61}{figure.caption.64}\protected@file@percent }
\newlabel{fig:ptldm}{{8.2}{61}{Momentum distribution of ldm vs lQCD jets\relax }{figure.caption.64}{}}
\@writefile{lof}{\contentsline {figure}{\numberline {8.3}{\ignorespaces Number size distribution of ldm jets\relax }}{62}{figure.caption.65}\protected@file@percent }
\newlabel{fig:nldm}{{8.3}{62}{Number size distribution of ldm jets\relax }{figure.caption.65}{}}
\citation{madgraph}
\citation{pythia}
\citation{delphes}
\@writefile{lof}{\contentsline {figure}{\numberline {8.4}{\ignorespaces ldm jet invertibility\relax }}{63}{figure.caption.66}\protected@file@percent }
\newlabel{fig:ldminv}{{8.4}{63}{ldm jet invertibility\relax }{figure.caption.66}{}}
\@writefile{toc}{\contentsline {subsection}{\numberline {8.2}Other datasets }{63}{subsection.8.2}\protected@file@percent }
\newlabel{sec:otherdata}{{8.2}{63}{Other datasets}{subsection.8.2}{}}
\@writefile{toc}{\contentsline {subsubsection}{\numberline {8.2.1}Quark or gluon}{63}{subsubsection.8.2.1}\protected@file@percent }
\newlabel{sec:qg}{{8.2.1}{63}{Quark or gluon}{subsubsection.8.2.1}{}}
\citation{quarkdata}
\@writefile{lof}{\contentsline {figure}{\numberline {8.5}{\ignorespaces Oneoff ROC curve for quark gluon. Here both curves should be above the line representing random guesses, and as you see, this is the case, even though the quark line is very close to randomly guessing.\relax }}{64}{figure.caption.67}\protected@file@percent }
\newlabel{fig:invquark}{{8.5}{64}{Oneoff ROC curve for quark gluon. Here both curves should be above the line representing random guesses, and as you see, this is the case, even though the quark line is very close to randomly guessing.\relax }{figure.caption.67}{}}
\@writefile{toc}{\contentsline {subsubsection}{\numberline {8.2.2}Leptons}{64}{subsubsection.8.2.2}\protected@file@percent }
\newlabel{sec:leptons}{{8.2.2}{64}{Leptons}{subsubsection.8.2.2}{}}
\@writefile{lof}{\contentsline {figure}{\numberline {8.6}{\ignorespaces Oneoff ROC curve for leptons\relax }}{65}{figure.caption.68}\protected@file@percent }
\newlabel{fig:invlepton}{{8.6}{65}{Oneoff ROC curve for leptons\relax }{figure.caption.68}{}}
\@writefile{toc}{\contentsline {subsection}{\numberline {8.3}Cross comparisons }{65}{subsection.8.3}\protected@file@percent }
\newlabel{sec:crossdata}{{8.3}{65}{Cross comparisons}{subsection.8.3}{}}
\@writefile{lof}{\contentsline {figure}{\numberline {8.7}{\ignorespaces Comparing each dataset to each other dataset, using oneoff networks. We use red points to mark values below $0.5$\relax }}{66}{figure.caption.69}\protected@file@percent }
\newlabel{fig:cross}{{8.7}{66}{Comparing each dataset to each other dataset, using oneoff networks. We use red points to mark values below $0.5$\relax }{figure.caption.69}{}}
\@writefile{lot}{\contentsline {table}{\numberline {8.1}{\ignorespaces Cross invertibility auc scores trained on row to be compared to collumn\relax }}{66}{table.caption.70}\protected@file@percent }
\newlabel{table:crossinv}{{8.1}{66}{Cross invertibility auc scores trained on row to be compared to collumn\relax }{table.caption.70}{}}
\@writefile{toc}{\contentsline {section}{\numberline {9}Conclusion}{68}{section.9}\protected@file@percent }
\newlabel{sec:secfin}{{9}{68}{Conclusion}{section.9}{}}
\@writefile{toc}{\contentsline {subsection}{\numberline {9.1}Outlook }{68}{subsection.9.1}\protected@file@percent }
\newlabel{sec:future}{{9.1}{68}{Outlook}{subsection.9.1}{}}
\@writefile{toc}{\contentsline {subsection}{\numberline {9.2}Acknowledgements }{70}{subsection.9.2}\protected@file@percent }
\newlabel{sec:Acknowledgements}{{9.2}{70}{Acknowledgements}{subsection.9.2}{}}
\@writefile{toc}{\contentsline {section}{Appendices}{71}{subsection.9.2}\protected@file@percent }
\@writefile{toc}{\contentsline {section}{\numberline {A}Understanding specific choices}{72}{appendix.A}\protected@file@percent }
\newlabel{sec:aecunderstand}{{A}{72}{Understanding specific choices}{appendix.A}{}}
\@writefile{toc}{\contentsline {subsection}{\numberline {A.1}Changing the input feature space }{72}{subsection.A.1}\protected@file@percent }
\newlabel{sec:afeature}{{A.1}{72}{Changing the input feature space}{subsection.A.1}{}}
\@writefile{lof}{\contentsline {figure}{\numberline {A.1}{\ignorespaces Metrik of a topK layer for a 4 momenta input\relax }}{72}{figure.caption.72}\protected@file@percent }
\newlabel{fig:metrik223}{{A.1}{72}{Metrik of a topK layer for a 4 momenta input\relax }{figure.caption.72}{}}
\@writefile{lof}{\contentsline {figure}{\numberline {A.2}{\ignorespaces Training history for the 4 momentum input.\relax }}{73}{figure.caption.73}\protected@file@percent }
\newlabel{fig:history223}{{A.2}{73}{Training history for the 4 momentum input.\relax }{figure.caption.73}{}}
\@writefile{toc}{\contentsline {subsection}{\numberline {A.2}Is it a good idea to relearn the graph at each step? }{73}{subsection.A.2}\protected@file@percent }
\newlabel{sec:arelearn}{{A.2}{73}{Is it a good idea to relearn the graph at each step?}{subsection.A.2}{}}
\@writefile{toc}{\contentsline {subsection}{\numberline {A.3}The consequences of sorting outputs by lpt }{73}{subsection.A.3}\protected@file@percent }
\newlabel{sec:asort}{{A.3}{73}{The consequences of sorting outputs by lpt}{subsection.A.3}{}}
\@writefile{lof}{\contentsline {figure}{\numberline {A.3}{\ignorespaces Training curve using sorting\relax }}{74}{figure.caption.74}\protected@file@percent }
\newlabel{fig:hist928}{{A.3}{74}{Training curve using sorting\relax }{figure.caption.74}{}}
\@writefile{lof}{\contentsline {figure}{\numberline {A.4}{\ignorespaces Training curve using without sorting\relax }}{74}{figure.caption.75}\protected@file@percent }
\newlabel{fig:hist1025}{{A.4}{74}{Training curve using without sorting\relax }{figure.caption.75}{}}
\@writefile{toc}{\contentsline {subsection}{\numberline {A.4}The usage of a batchNormalization layer in the middle of the graph autoencoder }{75}{subsection.A.4}\protected@file@percent }
\newlabel{sec:abatchnorm}{{A.4}{75}{The usage of a batchNormalization layer in the middle of the graph autoencoder}{subsection.A.4}{}}
\@writefile{lof}{\contentsline {figure}{\numberline {A.5}{\ignorespaces Training history with a batchnormalization layer\relax }}{76}{figure.caption.76}\protected@file@percent }
\newlabel{fig:hist725}{{A.5}{76}{Training history with a batchnormalization layer\relax }{figure.caption.76}{}}
\@writefile{lof}{\contentsline {figure}{\numberline {A.6}{\ignorespaces Training history without a batchnormalization layer\relax }}{76}{figure.caption.77}\protected@file@percent }
\newlabel{fig:hist1139}{{A.6}{76}{Training history without a batchnormalization layer\relax }{figure.caption.77}{}}
\@writefile{toc}{\contentsline {subsection}{\numberline {A.5}Changing the definition of the transverse momentum }{76}{subsection.A.5}\protected@file@percent }
\newlabel{sec:alpt}{{A.5}{76}{Changing the definition of the transverse momentum}{subsection.A.5}{}}
\citation{ParticleNet}
\@writefile{toc}{\contentsline {subsection}{\numberline {A.6}Comparing our graph update layer to particleNet }{77}{subsection.A.6}\protected@file@percent }
\newlabel{sec:acomparepnet}{{A.6}{77}{Comparing our graph update layer to particleNet}{subsection.A.6}{}}
\@writefile{toc}{\contentsline {section}{\numberline {B}Experiments using graph autoencoder}{78}{appendix.B}\protected@file@percent }
\newlabel{sec:aec}{{B}{78}{Experiments using graph autoencoder}{appendix.B}{}}
\@writefile{toc}{\contentsline {subsection}{\numberline {B.1}Variating the compression size }{78}{subsection.B.1}\protected@file@percent }
\newlabel{sec:acompsize}{{B.1}{78}{Variating the compression size}{subsection.B.1}{}}
\@writefile{lof}{\contentsline {figure}{\numberline {B.1}{\ignorespaces Rastering each compression size for a 4 node network (normalized) and showing each loss\relax }}{78}{figure.caption.78}\protected@file@percent }
\newlabel{fig:lossplots}{{B.1}{78}{Rastering each compression size for a 4 node network (normalized) and showing each loss\relax }{figure.caption.78}{}}
\@writefile{lof}{\contentsline {figure}{\numberline {B.2}{\ignorespaces Rastering each compression size for a 4 node network (normalized) and showing each AUC value (without oneoff networks)\relax }}{78}{figure.caption.79}\protected@file@percent }
\newlabel{fig:aucplots}{{B.2}{78}{Rastering each compression size for a 4 node network (normalized) and showing each AUC value (without oneoff networks)\relax }{figure.caption.79}{}}
\@writefile{toc}{\contentsline {subsection}{\numberline {B.2}Things we learned from implementing a Graph Autoencoder in tensorflow and keras }{79}{subsection.B.2}\protected@file@percent }
\newlabel{sec:aimplementation}{{B.2}{79}{Things we learned from implementing a Graph Autoencoder in tensorflow and keras}{subsection.B.2}{}}
\@writefile{toc}{\contentsline {subsubsection}{\numberline {B.2.1}Overflow in angular differences, and how to solve it}{79}{subsubsection.B.2.1}\protected@file@percent }
\newlabel{sec:aimplementationphi}{{B.2.1}{79}{Overflow in angular differences, and how to solve it}{subsubsection.B.2.1}{}}
\@writefile{toc}{\contentsline {subsubsection}{\numberline {B.2.2}How to deal with NANs}{79}{subsubsection.B.2.2}\protected@file@percent }
\newlabel{sec:NANs}{{B.2.2}{79}{How to deal with NANs}{subsubsection.B.2.2}{}}
\@writefile{toc}{\contentsline {subsubsection}{\numberline {B.2.3}Why relus are great}{80}{subsubsection.B.2.3}\protected@file@percent }
\newlabel{sec:relu}{{B.2.3}{80}{Why relus are great}{subsubsection.B.2.3}{}}
\@writefile{toc}{\contentsline {subsection}{\numberline {B.3}Metrik analysis }{80}{subsection.B.3}\protected@file@percent }
\newlabel{sec:ametrikana}{{B.3}{80}{Metrik analysis}{subsection.B.3}{}}
\@writefile{lof}{\contentsline {figure}{\numberline {B.3}{\ignorespaces Typical metrik of unnormalized networks\relax }}{80}{figure.caption.80}\protected@file@percent }
\newlabel{fig:metrik00}{{B.3}{80}{Typical metrik of unnormalized networks\relax }{figure.caption.80}{}}
\@writefile{lof}{\contentsline {figure}{\numberline {B.4}{\ignorespaces Typical metrik of normalized networks\relax }}{81}{figure.caption.81}\protected@file@percent }
\newlabel{fig:metrik725}{{B.4}{81}{Typical metrik of normalized networks\relax }{figure.caption.81}{}}
\@writefile{toc}{\contentsline {subsubsection}{\numberline {B.3.1}How topK works exactly}{81}{subsubsection.B.3.1}\protected@file@percent }
\newlabel{sec:atopkhow}{{B.3.1}{81}{How topK works exactly}{subsubsection.B.3.1}{}}
\@writefile{toc}{\contentsline {subsubsection}{\numberline {B.3.2}Problems}{81}{subsubsection.B.3.2}\protected@file@percent }
\newlabel{sec:Problems}{{B.3.2}{81}{Problems}{subsubsection.B.3.2}{}}
\@writefile{lof}{\contentsline {figure}{\numberline {B.5}{\ignorespaces Example of a set of nodes that cannot perfectly be connected using a topK algorithm (here $k = 1$). The problem here is, that 2 nodes have the same distance. We connect in this case both\relax }}{82}{figure.caption.82}\protected@file@percent }
\newlabel{fig:impos1}{{B.5}{82}{Example of a set of nodes that cannot perfectly be connected using a topK algorithm (here $k = 1$). The problem here is, that 2 nodes have the same distance. We connect in this case both\relax }{figure.caption.82}{}}
\@writefile{lof}{\contentsline {figure}{\numberline {B.6}{\ignorespaces Example of a set of nodes that cannot perfectly be connected using a topK algorithm (here $k = 1$. The problem here is, we want to connect the last node to a node that has no more open connections. We solve this by using asymmetric adjacency matrices\relax }}{82}{figure.caption.83}\protected@file@percent }
\newlabel{fig:impos2}{{B.6}{82}{Example of a set of nodes that cannot perfectly be connected using a topK algorithm (here $k = 1$. The problem here is, we want to connect the last node to a node that has no more open connections. We solve this by using asymmetric adjacency matrices\relax }{figure.caption.83}{}}
\@writefile{toc}{\contentsline {subsubsection}{\numberline {B.3.3}How topK might actually not be the best idea}{82}{subsubsection.B.3.3}\protected@file@percent }
\newlabel{sec:atopkwhy}{{B.3.3}{82}{How topK might actually not be the best idea}{subsubsection.B.3.3}{}}
\@writefile{lof}{\contentsline {figure}{\numberline {B.7}{\ignorespaces A graph representing chairs.\relax }}{83}{figure.caption.84}\protected@file@percent }
\newlabel{fig:chairs}{{B.7}{83}{A graph representing chairs.\relax }{figure.caption.84}{}}
\@writefile{toc}{\contentsline {subsection}{\numberline {B.4}Trainingsize, and why graph autoencoder don`t care about it }{83}{subsection.B.4}\protected@file@percent }
\newlabel{sec:asize}{{B.4}{83}{Trainingsize, and why graph autoencoder don`t care about it}{subsection.B.4}{}}
\@writefile{lof}{\contentsline {figure}{\numberline {B.8}{\ignorespaces Training curve trained on 50k top jets\relax }}{84}{figure.caption.85}\protected@file@percent }
\newlabel{fig:hist677}{{B.8}{84}{Training curve trained on 50k top jets\relax }{figure.caption.85}{}}
\@writefile{lof}{\contentsline {figure}{\numberline {B.9}{\ignorespaces Training curve trained on 5k top jets\relax }}{84}{figure.caption.86}\protected@file@percent }
\newlabel{fig:hist940}{{B.9}{84}{Training curve trained on 5k top jets\relax }{figure.caption.86}{}}
\@writefile{lof}{\contentsline {figure}{\numberline {B.10}{\ignorespaces Double ROC curve for different training sizes\relax }}{85}{figure.caption.87}\protected@file@percent }
\newlabel{fig:drsize}{{B.10}{85}{Double ROC curve for different training sizes\relax }{figure.caption.87}{}}
\@writefile{lof}{\contentsline {figure}{\numberline {B.11}{\ignorespaces Double ROC curve on oneoff networks comparing training sizes. You should see no actual difference here\relax }}{85}{figure.caption.88}\protected@file@percent }
\newlabel{fig:dssize}{{B.11}{85}{Double ROC curve on oneoff networks comparing training sizes. You should see no actual difference here\relax }{figure.caption.88}{}}
\@writefile{toc}{\contentsline {subsection}{\numberline {B.5}Why autoencoder reproduce mean values }{85}{subsection.B.5}\protected@file@percent }
\newlabel{sec:ameans}{{B.5}{85}{Why autoencoder reproduce mean values}{subsection.B.5}{}}
\@writefile{toc}{\contentsline {section}{\numberline {C}Overview of less useful networks}{87}{appendix.C}\protected@file@percent }
\newlabel{sec:aecfail}{{C}{87}{Overview of less useful networks}{appendix.C}{}}
\@writefile{toc}{\contentsline {subsection}{\numberline {C.1}Failed approaches }{87}{subsection.C.1}\protected@file@percent }
\newlabel{sec:failed}{{C.1}{87}{Failed approaches}{subsection.C.1}{}}
\@writefile{toc}{\contentsline {subsubsection}{\numberline {C.1.1}trivial models}{87}{subsubsection.C.1.1}\protected@file@percent }
\newlabel{sec:failedtrivial}{{C.1.1}{87}{trivial models}{subsubsection.C.1.1}{}}
\@writefile{toc}{\contentsline {subsubsection}{\numberline {C.1.2}minimal models}{87}{subsubsection.C.1.2}\protected@file@percent }
\newlabel{sec:failedminimal}{{C.1.2}{87}{minimal models}{subsubsection.C.1.2}{}}
\@writefile{toc}{\contentsline {subsection}{\numberline {C.2}An explicit look at the first working graph autoencoder }{88}{subsection.C.2}\protected@file@percent }
\newlabel{sec:firstworking}{{C.2}{88}{An explicit look at the first working graph autoencoder}{subsection.C.2}{}}
\@writefile{toc}{\contentsline {subsubsection}{\numberline {C.2.1}Decompression}{88}{subsubsection.C.2.1}\protected@file@percent }
\newlabel{sec:decoding0}{{C.2.1}{88}{Decompression}{subsubsection.C.2.1}{}}
\@writefile{toc}{\contentsline {subsubsection}{\numberline {C.2.2}Sorting}{88}{subsubsection.C.2.2}\protected@file@percent }
\newlabel{sec:quicksort}{{C.2.2}{88}{Sorting}{subsubsection.C.2.2}{}}
\@writefile{toc}{\contentsline {subsubsection}{\numberline {C.2.3}Training setup}{88}{subsubsection.C.2.3}\protected@file@percent }
\newlabel{sec:quicktrain}{{C.2.3}{88}{Training setup}{subsubsection.C.2.3}{}}
\@writefile{lof}{\contentsline {figure}{\numberline {C.1}{\ignorespaces Training history for first working autoencoder\relax }}{89}{figure.caption.89}\protected@file@percent }
\newlabel{fig:histb00}{{C.1}{89}{Training history for first working autoencoder\relax }{figure.caption.89}{}}
\@writefile{toc}{\contentsline {subsubsection}{\numberline {C.2.4}Results}{89}{subsubsection.C.2.4}\protected@file@percent }
\newlabel{sec:quickres1}{{C.2.4}{89}{Results}{subsubsection.C.2.4}{}}
\@writefile{lof}{\contentsline {figure}{\numberline {C.2}{\ignorespaces A reconstruction image for this model, we choose here one of the best reconstructed events\relax }}{90}{figure.caption.90}\protected@file@percent }
\newlabel{fig:draw7638}{{C.2}{90}{A reconstruction image for this model, we choose here one of the best reconstructed events\relax }{figure.caption.90}{}}
\@writefile{lof}{\contentsline {figure}{\numberline {C.3}{\ignorespaces AUC feature map for this model\relax }}{90}{figure.caption.91}\protected@file@percent }
\newlabel{fig:mapb00}{{C.3}{90}{AUC feature map for this model\relax }{figure.caption.91}{}}
\@writefile{toc}{\contentsline {subsection}{\numberline {C.3}Improving autoencoder }{91}{subsection.C.3}\protected@file@percent }
\newlabel{sec:secondworking}{{C.3}{91}{Improving autoencoder}{subsection.C.3}{}}
\@writefile{toc}{\contentsline {subsubsection}{\numberline {C.3.1}Training setup}{91}{subsubsection.C.3.1}\protected@file@percent }
\newlabel{sec:quick2setup}{{C.3.1}{91}{Training setup}{subsubsection.C.3.1}{}}
\@writefile{toc}{\contentsline {subsubsection}{\numberline {C.3.2}Results}{91}{subsubsection.C.3.2}\protected@file@percent }
\newlabel{sec:quick2results}{{C.3.2}{91}{Results}{subsubsection.C.3.2}{}}
\@writefile{lof}{\contentsline {figure}{\numberline {C.4}{\ignorespaces Training history for a better autoencoder\relax }}{91}{figure.caption.92}\protected@file@percent }
\newlabel{fig:hist200}{{C.4}{91}{Training history for a better autoencoder\relax }{figure.caption.92}{}}
\@writefile{lof}{\contentsline {figure}{\numberline {C.5}{\ignorespaces Reconstruction image for the same event as in the previous chapter, on the left for the current model, and on the rigth for the previous one\relax }}{92}{figure.caption.93}\protected@file@percent }
\newlabel{fig:vistake2}{{C.5}{92}{Reconstruction image for the same event as in the previous chapter, on the left for the current model, and on the rigth for the previous one\relax }{figure.caption.93}{}}
\@writefile{lof}{\contentsline {figure}{\numberline {C.6}{\ignorespaces AUC feature map for this model\relax }}{93}{figure.caption.94}\protected@file@percent }
\newlabel{fig:map200}{{C.6}{93}{AUC feature map for this model\relax }{figure.caption.94}{}}
\@writefile{toc}{\contentsline {subsection}{\numberline {C.4}Improving autoencoder even further? }{93}{subsection.C.4}\protected@file@percent }
\newlabel{sec:thirdworking}{{C.4}{93}{Improving autoencoder even further?}{subsection.C.4}{}}
\@writefile{toc}{\contentsline {subsubsection}{\numberline {C.4.1}Physical intuition behind the encoding algorithm}{93}{subsubsection.C.4.1}\protected@file@percent }
\newlabel{sec:intuitivecode}{{C.4.1}{93}{Physical intuition behind the encoding algorithm}{subsubsection.C.4.1}{}}
\@writefile{toc}{\contentsline {subsubsection}{\numberline {C.4.2}Better encoding}{94}{subsubsection.C.4.2}\protected@file@percent }
\newlabel{sec:encoding}{{C.4.2}{94}{Better encoding}{subsubsection.C.4.2}{}}
\@writefile{lot}{\contentsline {table}{\numberline {C.1}{\ignorespaces Quality differences for different encoder with a learnable handling of the feature vectors\relax }}{94}{table.caption.95}\protected@file@percent }
\newlabel{table:encode1}{{C.1}{94}{Quality differences for different encoder with a learnable handling of the feature vectors\relax }{table.caption.95}{}}
\@writefile{lot}{\contentsline {table}{\numberline {C.2}{\ignorespaces Quality differences for different encoder with a fixed function\relax }}{95}{table.caption.96}\protected@file@percent }
\newlabel{table:encode2}{{C.2}{95}{Quality differences for different encoder with a fixed function\relax }{table.caption.96}{}}
\@writefile{toc}{\contentsline {subsubsection}{\numberline {C.4.3}Better decoding}{95}{subsubsection.C.4.3}\protected@file@percent }
\newlabel{sec:decoding}{{C.4.3}{95}{Better decoding}{subsubsection.C.4.3}{}}
\@writefile{lot}{\contentsline {table}{\numberline {C.3}{\ignorespaces Quality differences for different graph like decoder\relax }}{95}{table.caption.97}\protected@file@percent }
\newlabel{table:decode1}{{C.3}{95}{Quality differences for different graph like decoder\relax }{table.caption.97}{}}
\@writefile{lot}{\contentsline {table}{\numberline {C.4}{\ignorespaces Quality differences for different param like decoder\relax }}{96}{table.caption.98}\protected@file@percent }
\newlabel{table:decode2}{{C.4}{96}{Quality differences for different param like decoder\relax }{table.caption.98}{}}
\@writefile{lot}{\contentsline {table}{\numberline {C.5}{\ignorespaces Quality difference for either running learnable sub graph updates or not\relax }}{96}{table.caption.99}\protected@file@percent }
\newlabel{table:decode3}{{C.5}{96}{Quality difference for either running learnable sub graph updates or not\relax }{table.caption.99}{}}
\@writefile{toc}{\contentsline {subsection}{\numberline {C.5}The compression algorithm that we would wish we would be able to write }{96}{subsection.C.5}\protected@file@percent }
\newlabel{sec:aultcode}{{C.5}{96}{The compression algorithm that we would wish we would be able to write}{subsection.C.5}{}}
\citation{mincutpool}
\@writefile{lof}{\contentsline {figure}{\numberline {C.7}{\ignorespaces A sample 6 node graph splitted using our algorithm\relax }}{97}{figure.caption.100}\protected@file@percent }
\newlabel{fig:mincut1}{{C.7}{97}{A sample 6 node graph splitted using our algorithm\relax }{figure.caption.100}{}}
\@writefile{lof}{\contentsline {figure}{\numberline {C.8}{\ignorespaces A sample 6 node graph splitted how we would like to split it\relax }}{97}{figure.caption.101}\protected@file@percent }
\newlabel{fig:mincut2}{{C.8}{97}{A sample 6 node graph splitted how we would like to split it\relax }{figure.caption.101}{}}
\@writefile{toc}{\contentsline {section}{\numberline {D}More problems while writing a graph autoencoder}{99}{appendix.D}\protected@file@percent }
\newlabel{sec:aecproblems}{{D}{99}{More problems while writing a graph autoencoder}{appendix.D}{}}
\@writefile{toc}{\contentsline {subsection}{\numberline {D.1}Choosing the rigth compression size }{99}{subsection.D.1}\protected@file@percent }
\newlabel{sec:csize}{{D.1}{99}{Choosing the rigth compression size}{subsection.D.1}{}}
\@writefile{toc}{\contentsline {subsection}{\numberline {D.2}Building identities out of graphs }{99}{subsection.D.2}\protected@file@percent }
\newlabel{sec:identities}{{D.2}{99}{Building identities out of graphs}{subsection.D.2}{}}
\@writefile{toc}{\contentsline {subsection}{\numberline {D.3}Is permutation invariance good or bad? }{101}{subsection.D.3}\protected@file@percent }
\newlabel{sec:aperminv}{{D.3}{101}{Is permutation invariance good or bad?}{subsection.D.3}{}}
\@writefile{toc}{\contentsline {subsection}{\numberline {D.4}Why use graph autoencoder }{101}{subsection.D.4}\protected@file@percent }
\newlabel{sec:whygae}{{D.4}{101}{Why use graph autoencoder}{subsection.D.4}{}}
\@writefile{toc}{\contentsline {subsection}{\numberline {D.5}Why not to use graph autoencoder }{101}{subsection.D.5}\protected@file@percent }
\newlabel{sec:whynotgae}{{D.5}{101}{Why not to use graph autoencoder}{subsection.D.5}{}}
\@writefile{toc}{\contentsline {subsubsection}{\numberline {D.5.1}Reproduding vs classifing quality}{101}{subsubsection.D.5.1}\protected@file@percent }
\newlabel{sec:nogaequal}{{D.5.1}{101}{Reproduding vs classifing quality}{subsubsection.D.5.1}{}}
\@writefile{lof}{\contentsline {figure}{\numberline {D.1}{\ignorespaces A simple old AUC by epoch plot for a unnormalized network with thus focus on angular data\relax }}{102}{figure.caption.102}\protected@file@percent }
\newlabel{fig:abe02}{{D.1}{102}{A simple old AUC by epoch plot for a unnormalized network with thus focus on angular data\relax }{figure.caption.102}{}}
\@writefile{lof}{\contentsline {figure}{\numberline {D.2}{\ignorespaces AUC as function of the losses without normalization using a trivial decompressor.\relax }}{103}{figure.caption.103}\protected@file@percent }
\newlabel{fig:abe29}{{D.2}{103}{AUC as function of the losses without normalization using a trivial decompressor.\relax }{figure.caption.103}{}}
\@writefile{lof}{\contentsline {figure}{\numberline {D.3}{\ignorespaces Comparison of multiple network, with other decompressors. green represents graph like and orange parameter like decompression. Compare this to figure \ref  {fig:relation1} in chapter \ref  {sec:normalization}\relax }}{104}{figure.caption.104}\protected@file@percent }
\newlabel{fig:multiplot2}{{D.3}{104}{Comparison of multiple network, with other decompressors. green represents graph like and orange parameter like decompression. Compare this to figure \ref {fig:relation1} in chapter \ref {sec:normalization}\relax }{figure.caption.104}{}}
\@writefile{lof}{\contentsline {figure}{\numberline {D.4}{\ignorespaces AUC by epoch for oneoff showing a growing relation, that at some point starts to fall again\relax }}{104}{figure.caption.105}\protected@file@percent }
\newlabel{fig:mabe3}{{D.4}{104}{AUC by epoch for oneoff showing a growing relation, that at some point starts to fall again\relax }{figure.caption.105}{}}
\@writefile{lof}{\contentsline {figure}{\numberline {D.5}{\ignorespaces Partial network combinations, AUC(gs) comparing a combination with equal weigths to one with a loss power of 3\relax }}{106}{figure.caption.106}\protected@file@percent }
\newlabel{fig:splitscale}{{D.5}{106}{Partial network combinations, AUC(gs) comparing a combination with equal weigths to one with a loss power of 3\relax }{figure.caption.106}{}}
\@writefile{toc}{\contentsline {section}{\numberline {E}Understanding Oneoff networks with more precision}{108}{appendix.E}\protected@file@percent }
\newlabel{sec:aeconeoff}{{E}{108}{Understanding Oneoff networks with more precision}{appendix.E}{}}
\@writefile{toc}{\contentsline {subsection}{\numberline {E.1}Other algorithms }{108}{subsection.E.1}\protected@file@percent }
\newlabel{sec:other}{{E.1}{108}{Other algorithms}{subsection.E.1}{}}
\@writefile{toc}{\contentsline {subsubsection}{\numberline {E.1.1}Support vector machines}{108}{subsubsection.E.1.1}\protected@file@percent }
\newlabel{sec:whatssvm}{{E.1.1}{108}{Support vector machines}{subsubsection.E.1.1}{}}
\@writefile{lof}{\contentsline {figure}{\numberline {E.1}{\ignorespaces A simple example of a shape, that an SVM cannot differentiate\relax }}{108}{figure.caption.107}\protected@file@percent }
\newlabel{fig:oneclasscircle}{{E.1}{108}{A simple example of a shape, that an SVM cannot differentiate\relax }{figure.caption.107}{}}
\citation{iforest}
\@writefile{toc}{\contentsline {subsubsection}{\numberline {E.1.2}k neirest neighbours}{109}{subsubsection.E.1.2}\protected@file@percent }
\newlabel{sec:whatsnvm}{{E.1.2}{109}{k neirest neighbours}{subsubsection.E.1.2}{}}
\@writefile{toc}{\contentsline {subsubsection}{\numberline {E.1.3}Isolation forests}{109}{subsubsection.E.1.3}\protected@file@percent }
\newlabel{sec:whatsiforest}{{E.1.3}{109}{Isolation forests}{subsubsection.E.1.3}{}}
\@writefile{toc}{\contentsline {subsection}{\numberline {E.2}Different algorithms for latent space training }{109}{subsection.E.2}\protected@file@percent }
\newlabel{sec:mixedalt}{{E.2}{109}{Different algorithms for latent space training}{subsection.E.2}{}}
\@writefile{lof}{\contentsline {figure}{\numberline {E.2}{\ignorespaces Reconstruction image for the comparison algorithm\relax }}{110}{figure.caption.108}\protected@file@percent }
\newlabel{fig:compvis677}{{E.2}{110}{Reconstruction image for the comparison algorithm\relax }{figure.caption.108}{}}
\@writefile{toc}{\contentsline {subsubsection}{\numberline {E.2.1}SVM}{110}{subsubsection.E.2.1}\protected@file@percent }
\newlabel{sec:mixedSVM}{{E.2.1}{110}{SVM}{subsubsection.E.2.1}{}}
\@writefile{toc}{\contentsline {subsubsection}{\numberline {E.2.2}Isolation forest}{110}{subsubsection.E.2.2}\protected@file@percent }
\newlabel{sec:mixediforest}{{E.2.2}{110}{Isolation forest}{subsubsection.E.2.2}{}}
\@writefile{toc}{\contentsline {subsubsection}{\numberline {E.2.3}k neirest neighbour}{110}{subsubsection.E.2.3}\protected@file@percent }
\newlabel{sec:mixedknn}{{E.2.3}{110}{k neirest neighbour}{subsubsection.E.2.3}{}}
\@writefile{toc}{\contentsline {subsubsection}{\numberline {E.2.4}Oneoff}{110}{subsubsection.E.2.4}\protected@file@percent }
\newlabel{sec:mixedoo}{{E.2.4}{110}{Oneoff}{subsubsection.E.2.4}{}}
\@writefile{toc}{\contentsline {subsection}{\numberline {E.3}Oneoff math }{110}{subsection.E.3}\protected@file@percent }
\newlabel{sec:oomath}{{E.3}{110}{Oneoff math}{subsection.E.3}{}}
\@writefile{lof}{\contentsline {figure}{\numberline {E.3}{\ignorespaces Two different widths of a background peak, resulting in different overlappings to the signal peak\relax }}{111}{figure.caption.109}\protected@file@percent }
\newlabel{fig:doublepeak}{{E.3}{111}{Two different widths of a background peak, resulting in different overlappings to the signal peak\relax }{figure.caption.109}{}}
\@writefile{toc}{\contentsline {subsection}{\numberline {E.4}Self improving oneoff networks }{112}{subsection.E.4}\protected@file@percent }
\newlabel{sec:impro}{{E.4}{112}{Self improving oneoff networks}{subsection.E.4}{}}
\newlabel{fig:oosym_1}{{\caption@xref {fig:oosym_1}{ on input line 2921}}{112}{Self improving oneoff networks}{figure.caption.110}{}}
\newlabel{sub@fig:oosym_1}{{}{112}{Self improving oneoff networks}{figure.caption.110}{}}
\newlabel{fig:oosym_2}{{\caption@xref {fig:oosym_2}{ on input line 2926}}{112}{Self improving oneoff networks}{figure.caption.110}{}}
\newlabel{sub@fig:oosym_2}{{}{112}{Self improving oneoff networks}{figure.caption.110}{}}
\newlabel{fig:oosym_3}{{\caption@xref {fig:oosym_3}{ on input line 2931}}{112}{Self improving oneoff networks}{figure.caption.110}{}}
\newlabel{sub@fig:oosym_3}{{}{112}{Self improving oneoff networks}{figure.caption.110}{}}
\@writefile{lof}{\contentsline {figure}{\numberline {E.4}{\ignorespaces The three kinds of simulated AUC by loss behaviours\relax }}{112}{figure.caption.110}\protected@file@percent }
\newlabel{fig:oosym}{{E.4}{112}{The three kinds of simulated AUC by loss behaviours\relax }{figure.caption.110}{}}
\@writefile{lot}{\contentsline {table}{\numberline {E.1}{\ignorespaces Distribution of types of loss vs AUC plots for random gaussian double peaks\relax }}{113}{table.caption.111}\protected@file@percent }
\newlabel{table:lossdist}{{E.1}{113}{Distribution of types of loss vs AUC plots for random gaussian double peaks\relax }{table.caption.111}{}}
\citation{deepoc}
\citation{mnist}
\@writefile{lof}{\contentsline {figure}{\numberline {E.5}{\ignorespaces AUC as function of loss for a oneoff network\relax }}{114}{figure.caption.112}\protected@file@percent }
\newlabel{fig:abeoo}{{E.5}{114}{AUC as function of loss for a oneoff network\relax }{figure.caption.112}{}}
\@writefile{toc}{\contentsline {subsubsection}{\numberline {E.4.1}Oneoff outside of physics}{114}{subsubsection.E.4.1}\protected@file@percent }
\newlabel{sec:oomnist}{{E.4.1}{114}{Oneoff outside of physics}{subsubsection.E.4.1}{}}
\citation{setmuon}
\citation{setelectron}
\@writefile{lof}{\contentsline {figure}{\numberline {E.6}{\ignorespaces On the top: The 5 least 7 like 7th in the training set. On the bottom: The 5 most 7 like not 7th in the evaluation sample. Our favorite image is that in the lower right corner, as you can clearly see that it is a 9, while also seeing how it can be interpreted as a 7\relax }}{115}{figure.caption.113}\protected@file@percent }
\newlabel{fig:exampledraw}{{E.6}{115}{On the top: The 5 least 7 like 7th in the training set. On the bottom: The 5 most 7 like not 7th in the evaluation sample. Our favorite image is that in the lower right corner, as you can clearly see that it is a 9, while also seeing how it can be interpreted as a 7\relax }{figure.caption.113}{}}
\@writefile{toc}{\contentsline {subsubsection}{\numberline {E.4.2}Physical interpretability for oneoff networks}{115}{subsubsection.E.4.2}\protected@file@percent }
\newlabel{sec:oometrik}{{E.4.2}{115}{Physical interpretability for oneoff networks}{subsubsection.E.4.2}{}}
\@writefile{lot}{\contentsline {table}{\numberline {E.2}{\ignorespaces Learned metrik values of oneoff networks trained on muon events\relax }}{116}{table.caption.114}\protected@file@percent }
\newlabel{table:oneoffmuon}{{E.2}{116}{Learned metrik values of oneoff networks trained on muon events\relax }{table.caption.114}{}}
\@writefile{lot}{\contentsline {table}{\numberline {E.3}{\ignorespaces Learned metrik values for a diagonal metrik oneoff networks trained on muon events\relax }}{116}{table.caption.115}\protected@file@percent }
\newlabel{table:oneoffmuondiag}{{E.3}{116}{Learned metrik values for a diagonal metrik oneoff networks trained on muon events\relax }{table.caption.115}{}}
\@writefile{toc}{\contentsline {subsection}{\numberline {E.5}How an oneoff network can become noninvertible }{116}{subsection.E.5}\protected@file@percent }
\newlabel{sec:oofail}{{E.5}{116}{How an oneoff network can become noninvertible}{subsection.E.5}{}}
\newlabel{fig:antiinvooldm_1}{{\caption@xref {fig:antiinvooldm_1}{ on input line 3062}}{117}{How an oneoff network can become noninvertible}{figure.caption.116}{}}
\newlabel{sub@fig:antiinvooldm_1}{{}{117}{How an oneoff network can become noninvertible}{figure.caption.116}{}}
\newlabel{fig:antiinvooldm_2}{{\caption@xref {fig:antiinvooldm_2}{ on input line 3067}}{117}{How an oneoff network can become noninvertible}{figure.caption.116}{}}
\newlabel{sub@fig:antiinvooldm_2}{{}{117}{How an oneoff network can become noninvertible}{figure.caption.116}{}}
\@writefile{lof}{\contentsline {figure}{\numberline {E.7}{\ignorespaces Antiinvertibility for ldm data, left using the autoencoder loss, and on rigth using oneoff networks\relax }}{117}{figure.caption.116}\protected@file@percent }
\newlabel{fig:antiinvooldm}{{E.7}{117}{Antiinvertibility for ldm data, left using the autoencoder loss, and on rigth using oneoff networks\relax }{figure.caption.116}{}}
\@writefile{lof}{\contentsline {figure}{\numberline {E.8}{\ignorespaces Number of jet particles for ldm jets\relax }}{117}{figure.caption.117}\protected@file@percent }
\newlabel{fig:histldmn}{{E.8}{117}{Number of jet particles for ldm jets\relax }{figure.caption.117}{}}
\@writefile{toc}{\contentsline {subsection}{\numberline {E.6}Why c addition might not be perfect }{118}{subsection.E.6}\protected@file@percent }
\newlabel{sec:awhycaddfail}{{E.6}{118}{Why c addition might not be perfect}{subsection.E.6}{}}
\@writefile{toc}{\contentsline {section}{\numberline {F}Other usecases for grapa}{119}{appendix.F}\protected@file@percent }
\newlabel{sec:secuse}{{F}{119}{Other usecases for grapa}{appendix.F}{}}
\@writefile{toc}{\contentsline {subsection}{\numberline {F.1}Abnormal account detection for social networks }{119}{subsection.F.1}\protected@file@percent }
\newlabel{sec:nets}{{F.1}{119}{Abnormal account detection for social networks}{subsection.F.1}{}}
\@writefile{toc}{\contentsline {subsubsection}{\numberline {F.1.1}Datageneration}{119}{subsubsection.F.1.1}\protected@file@percent }
\newlabel{sec:netsdata}{{F.1.1}{119}{Datageneration}{subsubsection.F.1.1}{}}
\@writefile{toc}{\contentsline {subsubsection}{\numberline {F.1.2}Training}{120}{subsubsection.F.1.2}\protected@file@percent }
\newlabel{sec:netstrain}{{F.1.2}{120}{Training}{subsubsection.F.1.2}{}}
\@writefile{lof}{\contentsline {figure}{\numberline {F.1}{\ignorespaces Loss distribution for social networks\relax }}{120}{figure.caption.118}\protected@file@percent }
\newlabel{fig:histnets}{{F.1}{120}{Loss distribution for social networks\relax }{figure.caption.118}{}}
\@writefile{lof}{\contentsline {figure}{\numberline {F.2}{\ignorespaces Oneoff loss distribution on social networks\relax }}{121}{figure.caption.119}\protected@file@percent }
\newlabel{fig:oohistnets}{{F.2}{121}{Oneoff loss distribution on social networks\relax }{figure.caption.119}{}}
\@writefile{toc}{\contentsline {subsubsection}{\numberline {F.1.3}Whats next}{121}{subsubsection.F.1.3}\protected@file@percent }
\newlabel{sec:netsnext}{{F.1.3}{121}{Whats next}{subsubsection.F.1.3}{}}
\@writefile{toc}{\contentsline {subsection}{\numberline {F.2}Accelarating molecular networks through pooling }{121}{subsection.F.2}\protected@file@percent }
\newlabel{sec:mol}{{F.2}{121}{Accelarating molecular networks through pooling}{subsection.F.2}{}}
\@writefile{toc}{\contentsline {subsubsection}{\numberline {F.2.1}Datageneration}{122}{subsubsection.F.2.1}\protected@file@percent }
\newlabel{sec:moldata}{{F.2.1}{122}{Datageneration}{subsubsection.F.2.1}{}}
\@writefile{toc}{\contentsline {subsubsection}{\numberline {F.2.2}Training}{122}{subsubsection.F.2.2}\protected@file@percent }
\newlabel{sec:moltrain}{{F.2.2}{122}{Training}{subsubsection.F.2.2}{}}
\newlabel{fig:histmol_1}{{\caption@xref {fig:histmol_1}{ on input line 3205}}{122}{Training}{figure.caption.120}{}}
\newlabel{sub@fig:histmol_1}{{}{122}{Training}{figure.caption.120}{}}
\newlabel{fig:histmol_2}{{\caption@xref {fig:histmol_2}{ on input line 3210}}{122}{Training}{figure.caption.120}{}}
\newlabel{sub@fig:histmol_2}{{}{122}{Training}{figure.caption.120}{}}
\@writefile{lof}{\contentsline {figure}{\numberline {F.3}{\ignorespaces Training curves on the left without compression step and on the rigth with one\relax }}{122}{figure.caption.120}\protected@file@percent }
\newlabel{fig:histmol}{{F.3}{122}{Training curves on the left without compression step and on the rigth with one\relax }{figure.caption.120}{}}
\@writefile{toc}{\contentsline {subsubsection}{\numberline {F.2.3}Whats next?}{122}{subsubsection.F.2.3}\protected@file@percent }
\newlabel{sec:molnext}{{F.2.3}{122}{Whats next?}{subsubsection.F.2.3}{}}
\citation{diagramms}
\@writefile{toc}{\contentsline {subsection}{\numberline {F.3}High level machine learning and feynman diagramms }{123}{subsection.F.3}\protected@file@percent }
\newlabel{sec:feyn}{{F.3}{123}{High level machine learning and feynman diagramms}{subsection.F.3}{}}
\@writefile{toc}{\contentsline {subsubsection}{\numberline {F.3.1}Data generation}{123}{subsubsection.F.3.1}\protected@file@percent }
\newlabel{sec:feyndata}{{F.3.1}{123}{Data generation}{subsubsection.F.3.1}{}}
\newlabel{fig:feynconv_1}{{\caption@xref {fig:feynconv_1}{ on input line 3250}}{124}{Data generation}{figure.caption.121}{}}
\newlabel{sub@fig:feynconv_1}{{}{124}{Data generation}{figure.caption.121}{}}
\newlabel{fig:feynconv_2}{{\caption@xref {fig:feynconv_2}{ on input line 3255}}{124}{Data generation}{figure.caption.121}{}}
\newlabel{sub@fig:feynconv_2}{{}{124}{Data generation}{figure.caption.121}{}}
\@writefile{lof}{\contentsline {figure}{\numberline {F.4}{\ignorespaces Example image of the conversion used for feynman diagramms, transforming the left diagramm into the rigth one\relax }}{124}{figure.caption.121}\protected@file@percent }
\newlabel{fig:feynconv}{{F.4}{124}{Example image of the conversion used for feynman diagramms, transforming the left diagramm into the rigth one\relax }{figure.caption.121}{}}
\@writefile{toc}{\contentsline {subsubsection}{\numberline {F.3.2}Training}{124}{subsubsection.F.3.2}\protected@file@percent }
\newlabel{sec:feyntrain}{{F.3.2}{124}{Training}{subsubsection.F.3.2}{}}
\citation{feyngen}
\citation{feyngen}
\@writefile{lof}{\contentsline {figure}{\numberline {F.5}{\ignorespaces Training history plot for feynman diagramm networks\relax }}{125}{figure.caption.122}\protected@file@percent }
\newlabel{fig:histfeyn}{{F.5}{125}{Training history plot for feynman diagramm networks\relax }{figure.caption.122}{}}
\@writefile{lof}{\contentsline {figure}{\numberline {F.6}{\ignorespaces Loss of each training graph compared to its number of lines.\relax }}{125}{figure.caption.123}\protected@file@percent }
\newlabel{fig:lossbyn}{{F.6}{125}{Loss of each training graph compared to its number of lines.\relax }{figure.caption.123}{}}
\newlabel{fig:vanish1_1}{{\caption@xref {fig:vanish1_1}{ on input line 3291}}{126}{Training}{figure.caption.124}{}}
\newlabel{sub@fig:vanish1_1}{{}{126}{Training}{figure.caption.124}{}}
\newlabel{fig:vanish1_2}{{\caption@xref {fig:vanish1_2}{ on input line 3296}}{126}{Training}{figure.caption.124}{}}
\newlabel{sub@fig:vanish1_2}{{}{126}{Training}{figure.caption.124}{}}
\newlabel{fig:vanish1_3}{{\caption@xref {fig:vanish1_3}{ on input line 3301}}{126}{Training}{figure.caption.124}{}}
\newlabel{sub@fig:vanish1_3}{{}{126}{Training}{figure.caption.124}{}}
\@writefile{lof}{\contentsline {figure}{\numberline {F.7}{\ignorespaces vanishing diagrams (visualized using \cite  {feyngen})\relax }}{126}{figure.caption.124}\protected@file@percent }
\newlabel{fig:vanish1}{{F.7}{126}{vanishing diagrams (visualized using \cite {feyngen})\relax }{figure.caption.124}{}}
\newlabel{fig:vanish2_1}{{\caption@xref {fig:vanish2_1}{ on input line 3314}}{126}{Training}{figure.caption.125}{}}
\newlabel{sub@fig:vanish2_1}{{}{126}{Training}{figure.caption.125}{}}
\newlabel{fig:vanish2_2}{{\caption@xref {fig:vanish2_2}{ on input line 3319}}{126}{Training}{figure.caption.125}{}}
\newlabel{sub@fig:vanish2_2}{{}{126}{Training}{figure.caption.125}{}}
\newlabel{fig:vanish2_3}{{\caption@xref {fig:vanish2_3}{ on input line 3324}}{126}{Training}{figure.caption.125}{}}
\newlabel{sub@fig:vanish2_3}{{}{126}{Training}{figure.caption.125}{}}
\@writefile{lof}{\contentsline {figure}{\numberline {F.8}{\ignorespaces more vanishing diagramms\relax }}{126}{figure.caption.125}\protected@file@percent }
\newlabel{fig:vanish2}{{F.8}{126}{more vanishing diagramms\relax }{figure.caption.125}{}}
\@writefile{lof}{\contentsline {figure}{\numberline {F.9}{\ignorespaces Loss distribution for feynnp, with anomalies in orange showing their index by their height. We also cap the loss at 0.6, as the second anomaly would else result in a loss way over $10$\relax }}{127}{figure.caption.126}\protected@file@percent }
\newlabel{fig:histfeynloss}{{F.9}{127}{Loss distribution for feynnp, with anomalies in orange showing their index by their height. We also cap the loss at 0.6, as the second anomaly would else result in a loss way over $10$\relax }{figure.caption.126}{}}
\@writefile{toc}{\contentsline {subsubsection}{\numberline {F.3.3}Whats next?}{127}{subsubsection.F.3.3}\protected@file@percent }
\newlabel{sec:feynnext}{{F.3.3}{127}{Whats next?}{subsubsection.F.3.3}{}}
\@writefile{lof}{\contentsline {figure}{\numberline {F.10}{\ignorespaces input number histogramm for feynman networks\relax }}{128}{figure.caption.127}\protected@file@percent }
\newlabel{fig:histicFEYN}{{F.10}{128}{input number histogramm for feynman networks\relax }{figure.caption.127}{}}
\@writefile{toc}{\contentsline {subsection}{\numberline {F.4}Graph like generators and onoff initializers }{128}{subsection.F.4}\protected@file@percent }
\newlabel{sec:tipsy}{{F.4}{128}{Graph like generators and onoff initializers}{subsection.F.4}{}}
\@writefile{toc}{\contentsline {subsubsection}{\numberline {F.4.1}Data generation}{128}{subsubsection.F.4.1}\protected@file@percent }
\newlabel{sec:tipsydata}{{F.4.1}{128}{Data generation}{subsubsection.F.4.1}{}}
\@writefile{toc}{\contentsline {subsubsection}{\numberline {F.4.2}Training}{128}{subsubsection.F.4.2}\protected@file@percent }
\newlabel{sec:tipsytrain}{{F.4.2}{128}{Training}{subsubsection.F.4.2}{}}
\@writefile{lof}{\contentsline {figure}{\numberline {F.11}{\ignorespaces Training curve for the generator. The training usually finishes when both losses are similar\relax }}{129}{figure.caption.128}\protected@file@percent }
\newlabel{fig:histtipsy1}{{F.11}{129}{Training curve for the generator. The training usually finishes when both losses are similar\relax }{figure.caption.128}{}}
\@writefile{lof}{\contentsline {figure}{\numberline {F.12}{\ignorespaces Training curve now with an oneoff initializer (not shown) trained for 10 epochs\relax }}{129}{figure.caption.129}\protected@file@percent }
\newlabel{fig:histtipsy2}{{F.12}{129}{Training curve now with an oneoff initializer (not shown) trained for 10 epochs\relax }{figure.caption.129}{}}
\@writefile{toc}{\contentsline {subsubsection}{\numberline {F.4.3}Whats next?}{129}{subsubsection.F.4.3}\protected@file@percent }
\newlabel{sec:tipsynext}{{F.4.3}{129}{Whats next?}{subsubsection.F.4.3}{}}
\@writefile{toc}{\contentsline {section}{\numberline {G}Additional Figures}{131}{appendix.G}\protected@file@percent }
\newlabel{sec:figure}{{G}{131}{Additional Figures}{appendix.G}{}}
\@writefile{lof}{\contentsline {figure}{\numberline {G.1}{\ignorespaces Momentum reconstruction images for a 9 node image.\relax }}{131}{figure.caption.130}\protected@file@percent }
\newlabel{fig:pt1416}{{G.1}{131}{Momentum reconstruction images for a 9 node image.\relax }{figure.caption.130}{}}
\@writefile{lof}{\contentsline {figure}{\numberline {G.2}{\ignorespaces ROC curve for a 16 node network trained on QCD\relax }}{131}{figure.caption.131}\protected@file@percent }
\newlabel{fig:roc1583}{{G.2}{131}{ROC curve for a 16 node network trained on QCD\relax }{figure.caption.131}{}}
\@writefile{lof}{\contentsline {figure}{\numberline {G.3}{\ignorespaces Loss distribution for a 16 node network trained on QCD\relax }}{132}{figure.caption.132}\protected@file@percent }
\newlabel{fig:rec1583}{{G.3}{132}{Loss distribution for a 16 node network trained on QCD\relax }{figure.caption.132}{}}
\@writefile{lof}{\contentsline {figure}{\numberline {G.4}{\ignorespaces Oneoff ROC curve for a 16 node network trained on QCD\relax }}{132}{figure.caption.133}\protected@file@percent }
\newlabel{fig:seproc1583}{{G.4}{132}{Oneoff ROC curve for a 16 node network trained on QCD\relax }{figure.caption.133}{}}
\@writefile{lof}{\contentsline {figure}{\numberline {G.5}{\ignorespaces Training history for a 16 node network trained on top\relax }}{133}{figure.caption.134}\protected@file@percent }
\newlabel{fig:hist1590}{{G.5}{133}{Training history for a 16 node network trained on top\relax }{figure.caption.134}{}}
\@writefile{lof}{\contentsline {figure}{\numberline {G.6}{\ignorespaces Angular reconstruction for a 16 node network trained on top\relax }}{133}{figure.caption.135}\protected@file@percent }
\newlabel{fig:sd1590}{{G.6}{133}{Angular reconstruction for a 16 node network trained on top\relax }{figure.caption.135}{}}
\@writefile{lof}{\contentsline {figure}{\numberline {G.7}{\ignorespaces Momentum reconstruction for a 16 node network trained on top\relax }}{134}{figure.caption.136}\protected@file@percent }
\newlabel{fig:pt1590}{{G.7}{134}{Momentum reconstruction for a 16 node network trained on top\relax }{figure.caption.136}{}}
\@writefile{lof}{\contentsline {figure}{\numberline {G.8}{\ignorespaces ROC curve for a 16 node network trained on top\relax }}{134}{figure.caption.137}\protected@file@percent }
\newlabel{fig:roc1590}{{G.8}{134}{ROC curve for a 16 node network trained on top\relax }{figure.caption.137}{}}
\citation{ostagram}
\citation{kaliningradmaps}
\@writefile{lof}{\contentsline {figure}{\numberline {G.9}{\ignorespaces Loss distribution for a 16 node network trained on top\relax }}{135}{figure.caption.138}\protected@file@percent }
\newlabel{fig:rec1590}{{G.9}{135}{Loss distribution for a 16 node network trained on top\relax }{figure.caption.138}{}}
\@writefile{lof}{\contentsline {figure}{\numberline {G.10}{\ignorespaces Oneoff ROC curve for a 16 node network trained on top\relax }}{135}{figure.caption.139}\protected@file@percent }
\newlabel{fig:seproc1590}{{G.10}{135}{Oneoff ROC curve for a 16 node network trained on top\relax }{figure.caption.139}{}}
\@writefile{toc}{\contentsline {section}{List of Figures}{135}{section*.140}\protected@file@percent }
\citation{feyngen}
\bibdata{main}
\bibcite{ostagram}{{1}{}{{}}{{}}}
\bibcite{kaliningradmaps}{{2}{}{{}}{{}}}
\@writefile{toc}{\contentsline {section}{List of Tables}{139}{section*.141}\protected@file@percent }
\@writefile{toc}{\contentsline {section}{References}{139}{section*.142}\protected@file@percent }
\bibcite{jetdm}{{3}{}{{}}{{}}}
\bibcite{diagramms}{{4}{}{{}}{{}}}
\bibcite{measurehiggs}{{5}{}{{}}{{}}}
\bibcite{tf}{{6}{}{{}}{{}}}
\bibcite{aeforpurity}{{7}{}{{}}{{}}}
\bibcite{feyngen}{{8}{}{{}}{{}}}
\bibcite{madgraph}{{9}{}{{}}{{}}}
\bibcite{aecombine}{{10}{}{{}}{{}}}
\bibcite{ldm}{{11}{}{{}}{{}}}
\bibcite{mincutpool}{{12}{}{{}}{{}}}
\bibcite{leakage}{{13}{}{{}}{{}}}
\bibcite{topquark}{{14}{}{{}}{{}}}
\bibcite{graphsoc}{{15}{}{{}}{{}}}
\bibcite{keras}{{16}{}{{}}{{}}}
\bibcite{gnnforchemistry}{{17}{}{{}}{{}}}
\bibcite{pairpot}{{18}{}{{}}{{}}}
\bibcite{aeforfault}{{19}{}{{}}{{}}}
\bibcite{thorb}{{20}{}{{}}{{}}}
\bibcite{graphunets}{{21}{}{{}}{{}}}
\bibcite{high1}{{22}{}{{}}{{}}}
\bibcite{dlatlhc}{{23}{}{{}}{{}}}
\bibcite{QCDorWhat}{{24}{}{{}}{{}}}
\bibcite{batchnorm}{{25}{}{{}}{{}}}
\bibcite{graphbasic}{{26}{}{{}}{{}}}
\bibcite{toptagref}{{27}{}{{}}{{}}}
\bibcite{data}{{28}{}{{}}{{}}}
\bibcite{variationalae}{{29}{}{{}}{{}}}
\bibcite{kipfetal}{{30}{}{{}}{{}}}
\bibcite{nopool}{{31}{}{{}}{{}}}
\bibcite{mnist}{{32}{}{{}}{{}}}
\bibcite{globalavpool}{{33}{}{{}}{{}}}
\bibcite{aebasic}{{34}{}{{}}{{}}}
\bibcite{iforest}{{35}{}{{}}{{}}}
\bibcite{quarkdata}{{36}{}{{}}{{}}}
\bibcite{setelectron}{{37}{}{{}}{{}}}
\bibcite{setmuon}{{38}{}{{}}{{}}}
\bibcite{latentspace}{{39}{}{{}}{{}}}
\bibcite{aeforgen}{{40}{}{{}}{{}}}
\bibcite{delphes}{{41}{}{{}}{{}}}
\bibcite{aeformotors}{{42}{}{{}}{{}}}
\bibcite{aeforanomalyphys}{{43}{}{{}}{{}}}
\bibcite{ParticleNet}{{44}{}{{}}{{}}}
\bibcite{aeforfraud}{{45}{}{{}}{{}}}
\bibcite{gnnformedicine}{{46}{}{{}}{{}}}
\bibcite{deepoc}{{47}{}{{}}{{}}}
\bibcite{gnnoverview}{{48}{}{{}}{{}}}
\bibcite{binclass}{{49}{}{{}}{{}}}
\bibcite{pythia}{{50}{}{{}}{{}}}
\bibcite{aefornuclear}{{51}{}{{}}{{}}}
\bibcite{aeforanomaly}{{52}{}{{}}{{}}}
\bibcite{aeforcompress}{{53}{}{{}}{{}}}
\bibcite{diffpool}{{54}{}{{}}{{}}}
\bibstyle{plainurl}
\providecommand\NAT@force@numbers{}\NAT@force@numbers
